HBB
HBA2
HBA1
AL357507.1
MARCO
FN1
KCNIP4
APOE
ITLN1
ADGRL3
COL25A1
GNLY
C1QA
C1QB
NRG3
CADM2
KCNB2
RBPJ
COL1A1
PCDH11X
F13A1
HLA-DRA
LINGO2
CTSB
IFNG-AS1
RGS6
LINC00968
ACTA2
MYH11
CD14
SERPINE1
LINC02147
FTL
LYZ
KCNAB1
RNASE1
C1QC
FGF13
CTSZ
FMN1
NKAIN2
NTRK3
KCNMA1
HLA-DRB1
ITGA8
CD74
MERTK
CLSTN2
PDZRN4
RCAN2
AL162414.1
POSTN
CYBB
TAGLN
VSIG4
LINC02511
HLA-DPA1
IL7R
ADAMTS19
RBM47
LRP1B
IGKC
HLA-DPB1
MSR1
RERGL
FCGR3A
LOXHD1
MMRN1
PROX1
PLA2G2A
CCL21
CPA3
LGMN
LINC00540
TGFBI
BMP6
LTBP1
NKG7
ARHGAP22
THEMIS
LAPTM5
AC068992.1
CD163
KYNU
MAMDC2
DGKB
LINC02296
HPSE2
ME1
NRXN3
MSLN
CNTNAP2
LYVE1
ROBO2
CD163L1
PCDH7
CR1
TEX41
PTCHD4
MECOM
HLA-DQA1
AC100849.1
FGF10
S100A8
LINC02388
PRG4
BMP2K
COL1A2
RYR2
AC011287.1
CTH
NRXN1
REG1A
TIMP1
TLL1
FYB1
RELN
HPGDS
LYN
MS4A6A
FHL5
VCAN
GRIN2A
NKAIN3
ST6GALNAC5
ADAMTS16
LINC01021
FMNL2
CLNK
ASPM
CST3
SRGN
DKK2
FGF14
CD55
HP
TPO
GPC6
HTR4
COLEC12
CTSS
ZNF804A
COL3A1
SLC22A3
AC008591.1
TFEC
EPHA3
GUCY1A2
MRC1
S100A9
TIMD4
AIF1
TOP2A
LRRTM4
AC099673.1
AC012349.1
SYNPO2
ARHGAP11B
MYOCD
KRT6A
NCKAP5
CCDC141
NPL
NOX4
PLCXD3
RAB3C
ANLN
MS4A4E
LINC01934
KIT
PIK3C2G
LINC00639
HS6ST3
CENPF
SPRED1
RYR3
AC092979.1
CARMN
PDE4B
AC020637.1
CTNNA2
S100Z
GJA5
HPGD
ADGRB3
MYL9
MKI67
CTSD
GRN
PLTP
KIF18B
KCNJ3
REG3G
SKAP1
C4BPB
STAB1
CREB5
PSAP
NEGR1
FCGBP
KCNQ5
DEPDC1B
LINC00598
NLGN4X
TNC
SLC11A1
FCN1
KCNIP1
CSRP1
TENM2
APOC1
LINC00607
RGS5
SYK
DCDC2C
LINC01094
CPB1
NEK10
PTPRO
GPAT3
MTSS1
CTSL
WDFY4
EMCN
EDIL3
MFAP5
ACTB
GPAM
FOLR2
GRID2
MS4A2
AC244205.1
KRT19
CDH18
DIAPH3
HDAC9
GRM7
AC016766.1
AC074327.1
AC005062.1
LST1
HHIP
CCL3
AOAH
AC019197.1
SGCZ
IGFBP3
CNTN1
CAMK4
MAP2
DSTN
CACNA1C
IGHM
DLEU7
BTNL9
PTPRB
MS4A7
VAV3
AKAP6
POLQ
MGAT4C
PKHD1
PCDH9
NELL1
ANO2
MT-CO1
LINC01036
CHODL
WDR49
DMXL2
KCND2
KIRREL3
SLPI
PRLR
SLC14A2-AS1
EPHA6
APCDD1
GRIK2
DPP6
LINC02055
WFDC1
IGLC2
ANK3
COL14A1
CDH13
LIPA
AC069277.1
THSD7B
SDC3
SELENOP
FLNA
CLEC12A
COTL1
PDE3B
MDGA2
LDB3
ZNF385D
ZNF804B
PDE1C
AC016152.1
BCL11A
GALNT13
KCTD8
AL590385.2
FPR3
STON2
AL356277.3
HLA-DQB1
CD84
GPM6A
MS4A4A
SLCO2B1
PRR16
GPC3
TBXAS1
SCN7A
SCN9A
ESCO2
DCLK1
NOV
LUZP2
STOX2
SLC9A9
SIGLEC1
LINC02432
KAZN
TRHDE-AS1
PDGFC
VWF
AFF3
NWD2
NCEH1
SNTG2
PCLO
AQP1
ITGAM
PLEK
PCK1
PTCHD1-AS
EPHA7
NRG1
EGFL6
FRMPD4
COL6A3
NOVA1
STAB2
MT-ND2
AL356479.1
KHDRBS2
LINC00698
LEF1
ACVR1C
AC008691.1
C7
ZNF385B
ITGB2
SAMSN1
RNF144B
LUM
TYROBP
AC018742.1
GZMA
C5orf17
AIM2
CCDC3
FABP4
PPFIA2
INPP4B
LINC01684
C12orf75
MMP9
CCDC26
ABCA10
UBASH3B
LINC01748
DOCK2
EYA1
NPFFR2
ITGA4
FAP
AC073529.1
AC093607.1
NCAM2
MIR4500HG
PRKAR2B
CHSY3
FBN1
PTPRJ
SDK1
P2RY14
RXRG
EBF2
CXADR
CYP1B1
IFI44L
PPP2R2B
DIRC3
CENPE
FRZB
ANGPT1
FCRL1
FGL1
ATP8B4
AC092546.1
ADAMTS1
ADAMTSL1
BMPER
DTHD1
HMMR
ADRA1A
AL590867.1
DGKI
C11orf96
AC093772.1
RORB
LINC01505
LINC02552
AC087565.3
AC113383.1
AC099792.1
CCL18
ADAM28
AC024230.1
XKR4
LINC01239
LTB
CXCL2
VEGFC
AL450332.1
COL24A1
ABCA9
MYOM2
SLC38A11
CD247
IKZF1
SLC30A10
CCL13
ARHGAP18
ACKR1
DLEU7-AS1
KIF26B
SH3RF2
TOX
FTH1
LINC02113
AC100768.2
CD44
KCTD16
LILRB4
ACTG2
CMKLR1
STEAP4
CCR1
LINC00355
ARL15
ADAP2
TTN
FRMD4B
AC005064.1
AL358335.2
GPNMB
CDH20
SORBS1
LINC02237
DACH2
NDUFA4L2
AP002989.1
PRF1
KCTD12
GABRB2
ADAM12
BUB1
DHRS9
PIK3AP1
AC109779.1
KNL1
IQGAP2
SLC2A5
SNX24
PSD3
RTKN2
CD52
HMOX1
KCNH5
NALCN-AS1
HCN1
POU2AF1
ADGRE5
AC073050.1
SPATA9
ESRRG
DISC1FP1
LINC02345
KCNK13
LINC02328
TRABD2B
LINC00970
NTRK2
HS3ST2
AL445250.1
AP1S2
GZMB
DACH1
IGFBP6
COL23A1
UPK3B
CYBA
TSPEAR
DAB2
CLIC5
GRM5
AC116353.4
CNTN4
SYNPR-AS1
ARHGAP24
AC114689.3
AC112206.2
SGO1-AS1
RUNX1
ARNTL2
PPARGC1A
LAMA2
SCN3A
KLHL4
NUSAP1
TMEM196
FAM9B
ADAMTSL3
PGR
FNDC1
TMTC1
P2RY12
MAMDC2-AS1
LINC00861
AC013652.1
CD5L
AL022068.1
ABCB1
MAFB
LRP2
MMP16
LINC02306
ZEB2
LINC01340
PIK3R5
SFRP4
CD86
PTPRC
RIMS2
NREP-AS1
ST8SIA6
JAKMIP2
CCBE1
BRINP3
AL035401.1
MGAT1
DLGAP5
MYRIP
XACT
NCKAP1L
TPRG1
COL28A1
ADAMTS5
AC008056.1
AC138305.1
LINC00702
SYT1
SAMD12-AS1
AC020656.1
BGN
ABCB5
SATB1-AS1
FAM19A1
PAK3
C2
ITGBL1
CLEC7A
LINC00299
ST8SIA4
GAS7
SMOC1
OCA2
KLRF1
LINC00989
HCK
RGS7BP
AC090568.2
LRFN5
TXK
LINC01088
AL391117.1
STC1
MT-ND4
PRKCB
SV2C
IGF1
FCER1G
AC092691.1
GYPA
RIMS1
AC009271.1
SLC2A9
SAMD3
CYP27A1
AC005885.1
SLC8A3
CLDN1
PFKFB1
SLC14A2
RANBP17
MCAM
RUBCNL
MT-ND5
OTOGL
AC007529.2
SLCO5A1
AC006387.1
CLDN5
C10orf10
AC104574.2
TRDN
CYYR1
PDGFD
APBB1IP
ADAMTS18
KCNIP2-AS1
LILRB5
CCDC178
IGLL5
CSF1R
LVRN
AC138123.2
PLN
ALCAM
KLRC1
SPRR2F
RIPOR2
AC099560.1
AP2A2
LINC00504
MEGF10
MT-CO2
CCL2
CLEC14A
ANKFN1
DRAM1
AC012593.1
STK32B
SLC44A5
PARM1
CIT
EMP3
VWC2
AC104809.2
TFPI
TM4SF1
CA4
RASGEF1B
MELK
LONRF2
C4BPA
ABCB11
MCTP1
GHR
LINC02391
SLC1A3
SLC7A2
C3AR1
AL353811.1
GABRB1
KIF14
C8orf34
MRVI1
CKAP2L
ACP5
AL356124.1
MIR4300HG
HAS2
SLC19A3
UAP1
AC010343.3
FLT3
LINC02397
LAMP1
CDCA2
STARD13
ADGRL4
BMX
PELI1
SLC39A8
FLT1
SLC25A21
FGF7
KCNQ3
SAMHD1
AC022424.2
ALOX5AP
HMCN1
HECW2
KIF4A
SPARC
UPK1B
ALDH1A3
LY86
UNC5C
CD4
PAG1
TENM3
RGS1
AC108879.1
KLRC4-KLRK1
ARHGAP15
AC074286.1
ABCA1
SMAP2
KLRB1
GFRA2
MIR646HG
IL1RAPL1
AC110995.1
HTR7
PPM1L
LINC02233
COL17A1
CPA4
CD36
MAOB
FAM129A
LTA4H
PPP1R14A
ALDH1A1
TPX2
CHRM3
MT-CYB
ENPP2
GLDN
C3
KCNMB2-AS1
FRAS1
TFPI2
ZNF366
NPC2
NTN1
LINC01146
JCHAIN
ADAM19
PTPRT
LHFPL1
PROX1-AS1
CTNNA3
LINC00923
SYCP1
IRS1
CYP1B1-AS1
FOS
GLYAT
AC016205.1
LAMB3
CADM1
CTSC
ITGA1
CTGF
CYP7B1
PHLDB2
AC078845.1
LINC01435
ANO3
EFNB2
LINC01266
GALNT14
GREM2
CCSER1
TMSB10
AC064834.1
BCAT1
ITGAX
PTH2R
AC026167.1
CHST15
FCGRT
LINC02112
DGKG
SAA1
POU6F2
BTG3-AS1
LHFPL3
EPB41L3
TRPS1
AC108866.1
AC007422.2
GYG2
TREM2
FHOD3
BLNK
CYR61
CPNE4
CYTH1
CLEC4F
CPM
SLC7A11
CENPK
HS3ST3A1
LPL
G0S2
IGFBP2
SCARA5
GRB2
AC060234.3
ADGRG5
IGSF21
IRF8
HCST
CCL5
FBN2
CHI3L1
NOSTRIN
PLA2G7
MITF
FCN3
SUCNR1
AL591501.1
AP005328.1
SIK2
CDH2
S100A4
MS4A1
DOCK8
MT-CO3
MAOA
SNCAIP
ATP1A2
HMGA2
ENPEP
TRG-AS1
FAM155A
EPB41L4B
NCAM1
ASPN
GRIA4
MACC1
SPOCK2
HBG1
GSAP
PTPRZ1
PLD5
PIEZO2
SLCO2A1
DPYS
FCGR2B
GUCY1A3
COL15A1
CILP
CA8
TP63
CLDN10-AS1
TMEM132C
SMIM25
MOXD1
MYBL1
SOX2-OT
FRK
AF165147.1
SFMBT2
AC126177.4
MPP7
PTPRR
OR8G5
ACPP
LINC00871
AC091946.1
TRHDE
MT-ND1
AC098864.1
CDH6
LINC00578
CASQ2
LINC02360
PLIN1
S100A6
CD96
ADIPOQ
AC112493.1
LCP1
RHOJ
KCNMB2
AC113386.1
PRRX1
PID1
LINC02476
DMD
CHN2
ABCA6
GZMH
AL033504.1
MYLK
MT-ATP6
RNF150
KRT18
LINC02008
SUSD5
PGM5
PXDNL
ADA2
DAPL1
ADAM23
AC019211.1
AL162584.1
AL160272.1
PRKCH
LINC01324
ADGRV1
GNAT3
COL6A1
AC104123.1
AC027627.1
NOL4
CD200R1
SUGCT
ENTPD1
ANKRD30A
LINC01876
BIRC5
ADAMTS6
IL2RA
APOD
LINC02085
TTLL7
SORBS2
HLA-DMB
FAM19A2
TTYH3
LRRC4C
FCHSD2
AC069208.1
AC093523.1
PGAP1
NEIL3
DAPK2
AC025470.2
GALNT15
PDZRN3
CNGA1
IL2RB
MIR325HG
FGL2
MND1
EZH2
DSG1-AS1
ZSWIM6
LINC01828
BDKRB1
HRH1
TNFRSF1B
ATRNL1
ASTN1
BCL11B
STXBP6
MROH9
SGIP1
DYSF
MIR3142HG
LINC00922
AADAC
AGBL4
SEMA3D
SCD
SFRP2
SLC41A1
LINC01950
AC010235.1
AGMO
TBC1D2
TYR
CDKN1A
ARHGEF10L
AC092422.1
SCEL
AC124854.1
AC097487.1
AC003991.1
HMGCLL1
LIX1-AS1
TNS3
ENPP1
LINC02240
ST18
LINC01483
HNMT
RAB39A
AC095050.1
LMOD1
SLC1A2
GPC5
CLU
AL356108.1
AC084816.1
AJ009632.2
LINC02232
EDN1
TMEM164
AC139720.1
DIO2
CDK15
PRC1
RBP7
CD28
LINC02211
AC104248.1
GPR176
PCDH9-AS2
PALLD
NR5A2
SORCS1
VSNL1
SOX5
AC009226.1
FREM1
IGSF6
KIF23
C5AR1
TRPC4
CYTIP
AL807742.1
LINC00907
MYO5A
TMEM108
PQLC2L
LINC01500
AC004160.1
C6
NRP2
IGLC3
LINC01504
A2M
SAMD5
NCAPG
CACNA1D
RANBP3L
MIR2052HG
COX4I2
GRM1
AL034397.3
LINC01192
CXorf36
GCLC
AC092920.1
COL4A1
GPRIN3
AC084200.1
KLHL13
LINC02235
TBX18
CLDN11
SIRPB2
MYH10
SEMA3E
AC245427.1
STK10
LRRIQ3
CLSPN
BANK1
TARID
LINC01933
SCML4
THBS1
GRAP2
PACRG
ITK
PPARG
AC244021.1
PDK4
CXCL10
BCL2A1
AL353148.1
FCRL2
CACNA2D3
DEPDC1
NLN
AC116345.1
C1orf162
NMU
BIRC3
IL10RA
MS4A14
ANGPTL7
ABCA9-AS1
AF130359.1
SLC38A6
ABLIM3
PLCB4
AC002454.1
TC2N
AC010127.1
LINC02058
LINC01572
TMEM2
AC034195.1
CCL4
FGD4
ZFHX3
KCNIP4-IT1
TPP1
AC024084.1
AC011586.1
SYTL2
AC002070.1
AP003354.2
NPSR1-AS1
AC005537.1
LINC02542
POT1-AS1
NOTCH3
NTF3
MPEG1
SPOCK1
LINC01098
EDNRA
UCP1
FBXO32
ZNF438
AC104041.1
CD53
IL19
MME
GIPC2
SH3BGRL3
ATG7
CHST11
GPR39
AC025569.1
COL4A2
GAS2L3
CD48
AC105094.2
ACACB
TPM2
LDB2
OLIG1
CALCR
ACSL1
SERPINA1
LYPD2
LINC00327
MCM10
VASH2
PTGER3
AFF2
ELL2
AL138899.1
AL078590.2
HAVCR2
DPP10
FOXP2
LINC01708
LINC01885
KCNT2
PFN1
CCL7
AP000561.1
EXT1
AGTR1
AC087672.3
GPIHBP1
AP003049.2
C17orf58
CX3CR1
CLDN10
AL392023.2
CD226
RAP1GAP2
OSBPL3
SDCBP
SLC40A1
STAT4
NEBL
AC013470.2
LHFPL3-AS2
MARC1
SLC26A7
RCSD1
CNTN5
AL139383.1
EPHA5
AC018616.1
CDK1
CCDC129
ADGRF5
AL122019.1
SLC7A7
KLHL14
TMEM51
AC098829.1
FRMD5
RAPGEF5
IRS2
DOCK10
MGC4859
TRPM3
CLEC9A
RHAG
LBH
CASC9
IKZF2
AC096666.1
AC120193.1
CXCL9
SRGAP3
AL390860.1
DEFB1
ALOX5
KMO
AL359232.1
KIAA1217
TEC
MTUS2
CNN1
LMO3
RXFP1
COL8A1
AC107419.1
PLVAP
LILRB1
AC008415.1
OLR1
CCDC102B
TBC1D14
FMO2
E2F7
LMX1A
PREX2
LINC01725
VCAM1
NALCN
GRIN2B
HLA-DMA
GREB1
LIPE-AS1
APOLD1
MGP
AC079298.3
CCDC170
E2F1
ST6GALNAC3
AC090833.1
FAM163A
KRTAP10-4
CLEC10A
IQCM
ITGA9
INMT
AL160162.1
TINAG
NTM
AC090993.1
PTGIS
LINC01170
ADGRE2
AC079380.1
SNCA
AL442647.1
EGR1
MFHAS1
AC016708.1
KCNS3
KIAA1456
VAT1L
KCNMA1-AS1
SNAP91
CD63
PLAC8
MYO3A
HDC
FAM46A
PDE10A
AP005203.1
LINC02223
LNX1
AC002066.1
AC008050.1
SLCO1C1
AC131956.2
AP003400.1
GADL1
CALCRL
AC009055.1
LRRC3B
PTAFR
Z93403.1
PECAM1
AC002480.1
PDE1A
ETV5
LMCD1
STAC
DSG1
GALNT17
SLC16A10
AL499616.1
SLIT2
LINC01442
PAMR1
ZPLD1
LINC00636
ADAMTS3
FGF10-AS1
POU2F2
GAS1
LINC01182
GREM1
AC243829.2
CADPS
LIN7A
TMEM233
ACSS3
CD2
IGFBP1
HJURP
RPL28
L1TD1
PAPPA
MT2A
SCN2A
ASIC2
LAMP3
SLC24A4
AL359979.1
LINC00704
IL1R2
HSD52
MKX
TET3
STEAP3
ME2
ADCY5
RAP2B
AC092378.2
AQP4-AS1
PLIN4
S100A10
GNG2
C9
RUNDC3B
CNTN6
AL442163.1
RNLS
GRB14
BRCA2
CXCL1
DAPP1
RTN1
TCL1A
AC020704.1
STAP1
EPHA1-AS1
MEG8
JAZF1-AS1
CARD11
AC097478.1
TSPAN5
ENAM
IGHG3
WNT4
MYOM1
AC079062.1
LINC00534
DNASE1L3
CHL1
AL365295.1
SMPDL3A
AL445259.1
LINC01091
PEX5L
AL024509.3
SLA
LINC00603
AC093865.1
SH2D1B
CPVL
FLI1
SPI1
VNN3
MAF
RPS13
FBP1
RBFOX1
TRGC2
AL355997.1
FGFBP1
LINC01350
BMP5
FAM111B
AL606804.1
AC090376.1
CD83
VCAN-AS1
NXPH2
AC096576.2
RNF217-AS1
GZMK
GFPT2
AL359220.1
RBM24
CD9
GAP43
LINC00402
DYNC1I1
BACH2
TESPA1
WDPCP
AK5
AC110023.1
MKNK1
CDH19
AC124254.1
AC134511.1
MEOX2
LINC02082
SCIN
CXCL3
AL583785.1
SLC8A1
COL12A1
FAT3
P2RX7
AC092167.1
AC012625.1
CD68
CIDEA
TGFB2
AC004862.1
STEAP2-AS1
TDO2
FGFBP2
STXBP5L
LCP2
PWRN1
MYH13
SAA2
STYK1
LINC00276
PCDH17
LRRTM3
TMSB4X
RGS4
SIRPG
ZEB1-AS1
TTK
LINC02149
AC090531.1
TAT-AS1
AC091885.2
LINC01524
RND3
RASGRP3
LINC00683
TP73
AL365259.1
SLC4A8
SERPINI2
PALM2-AKAP2
NIPAL1
SEMA5A
EZR
GNAI1
SIGLEC10
MYO1B
GPR155
HLA-B
AL357793.1
SHISA6
COMP
AL050403.2
TCN2
GABRA2
POLN
RNF152
LINC02227
CYYR1-AS1
TRIM14
KLB
PCSK5
LINC01482
GAD1
ESR1
BRIP1
C8orf37-AS1
TRPC6
LINC01515
ENAH
IGHA2
AC078881.1
TRDC
LINC01697
PTHLH
CD38
SMAD1
PTN
CHAC1
NHS
NCALD
TMEM71
AL139158.2
AP003063.1
AC131025.2
RNF135
CMTM6
AC068305.3
GPD1
RDH5
CYP26B1
AC099566.1
GPR34
LINC02384
RNASET2
PTPN22
ARHGAP25
LINC00992
CNTN3
PDE3A
NPR3
AC067956.1
ADARB1
ARPC1B
MSRB3
LAMP5
SLC43A2
NRK
ERBB4
CSMD2
DUSP10
ITGAL
FAM105A
MARCKS
CEP128
HBG2
ABCC5
LINC00924
C5orf64
NUAK1
PYHIN1
P3H2
ST6GAL2
LINC01982
PAPPA2
Z94721.1
EBF1
STK38L
C5orf67
C22orf34
AC010099.4
PPP2R1B
AADACL2-AS1
LINC01905
AL356270.1
LMO1
LINC01287
LINC02446
S100A11
ABCC9
AC078962.2
HCLS1
LINC01060
TMEM117
AC025048.4
PIMREG
MSC-AS1
LINC02253
IFITM3
RAB31
SPN
AC022274.1
PWRN4
CH25H
GSDMC
ZCCHC12
FAM20A
AQP7
HLA-C
JPH2
THEMIS2
AC097460.1
ARHGDIB
AC073941.1
HAS1
CST7
SCN1A
AC092131.1
AC138356.1
C15orf53
NPPC
SLAMF1
MOB3B
AC063944.1
PENK
MRVI1-AS1
EHD4
AC084871.1
TMC1
HEYL
ITGA6
PTGER2
CDCA3
IGFL2
NPY1R
AC117386.2
LINC00470
BCAS1
GLOD5
SLAMF6
MFAP4
RARRES1
KIF25
DIAPH3-AS2
KEL
AL031599.1
ITGB8
EPGN
AGR2
LINC01949
OLFM3
OSM
FAM133A
NDC80
AC091901.1
LINC02456
AC246817.1
SPC25
DSCAML1
AC007240.1
ATP4A
FP700125.1
HIST1H3H
IRX3
MYCL
NDP
BCL2
KIF18A
PPFIBP1
AC007091.1
AC007384.1
AC096773.1
LINC00159
PERP
AC087280.2
CNBD1
BTBD11
AC092440.1
AURKB
ZNF710
TLR7
FCGR2A
PILRA
JAM2
RGCC
AC103409.1
LRRC2
AC079917.1
CD1C
PRDM6
HGF
LINC01163
GRK3
SLC9C1
UPP2
AC005208.1
RHOH
LAMB4
PLS3
GRIA1
AC022075.1
AC097480.1
PZP
AC068051.1
CD3G
AC018680.1
AC007376.2
FUCA1
AC025465.1
LINC01456
AC027288.3
RASGRF2
AC098617.1
CD300LF
LINC01722
AC024257.1
CATSPERB
DEC1
MAP3K8
AC003984.1
AL136987.2
AC025272.1
CD79A
LINC00382
S100A12
C4orf22
AC073082.1
GLIPR1
SEMA6A
IKZF3
RPL32
MIR31HG
SLAMF7
EN1
AC106798.1
SMC4
FGF12
NAMPT
FAM84A
TUBA1B
FAM102B
MANBA
RGL1
VAV1
ERG
BLK
AMPD1
LINC01807
TMEM100
AC009163.1
HLA-A
TENM4
TRAC
BRINP2
DCC
AC099066.1
LINC02115
RAPGEF4
RSPO3
RGS17
ZNF536
AC007495.1
LINC01440
LINC01698
IFI27
RPL26
TMEM47
AC104304.1
RAB27B
TPK1
AC006504.7
IL18R1
LINC01644
NAV2
PRSS12
LINC01695
C1R
CDCA8
AC092378.1
LINC02197
TMEM232
TFCP2L1
LIMCH1
AL157911.1
ISM1
LHFPL3-AS1
CDH12
FMO1
HS3ST5
MAN1C1
NR4A1
AL392086.1
LGI2
AC005291.2
TIAM1
APLP2
PCDH15
HIF1A
SPARCL1
MAP1B
JUNB
NFAM1
LINC02307
CPS1
LINC01592
ITGAD
AL133346.1
AC239803.1
AICDA
AL096865.1
AL606537.1
AP004608.1
ATP4B
LINC00491
LINC01102
LINC02143
GABRB3
PLCL1
CASC2
GREB1L
LINC02408
LINC02477
CFP
LINC02378
CALB2
HS6ST2
CALCB
ZDHHC20
AC005358.1
MIR34AHG
AC008840.1
GPT2
SATB2
SYN2
PRELID2
LINC01568
H2AFY2
KIF11
GM2A
KHDRBS3
TMEM88
SEMA3C
NEXMIF
HMCN2
PAX8-AS1
CCDC60
AC121154.1
SLAMF8
SLC4A7
TRGC1
PTPRQ
CD93
LINC01493
DEFB124
PAPSS2
LINC01301
TLR1
PRDM16
SLC17A3
WWC1
SBSPON
GRID1
GLRA3
IQGAP3
IL33
FAT4
DIP2B
RPL8
PRKG2
DOK6
C2orf66
ADCY2
PARPBP
KALRN
AC069228.1
AC092650.1
EYA2
VIM
GLCCI1
KCNE1
DNAJC5G
RAB20
ELOVL7
MLIP
TNIK
KC6
CLECL1
GRIP1
FRMD6-AS2
LINC01899
AC016642.1
MT-ND3
JAML
NTNG1
YWHAH
DNM1
AC090572.3
PLCZ1
PECR
SESN3
SLFN12L
MEF2C
DAB1
IGFBP7-AS1
HK2
KCNK2
AL110292.1
FASLG
KCNA5
AL358394.3
HAS2-AS1
CXCL14
MT1E
C1orf186
AC090109.1
LIPE
ALPK3
ABTB2
AC022387.1
LINC01812
APBA2
RERG
FAM13A
AL445426.1
CD300LG
ANO4
ACTG1
MGAT4A
RGS13
BATF3
CD300E
AC097512.1
LINC02207
LINC02461
SRD5A2
AC117513.1
LINC02067
AC012668.3
AC007364.1
AP001636.3
STARD4
DCN
DSC3
AC109349.1
AC000099.1
SHCBP1
IL32
AC069114.1
GDF10
TPT1
GLUL
GSTCD
LINC01619
AC012501.1
TSPAN13
OAZ1
AC116563.1
PCDH19
ACKR3
KCNMB4
RPL19
LPCAT2
CFAP161
COL16A1
PCSK2
CEP55
ERICH3
HSPA5
AC073365.1
ANKH
CTSH
CCDC148
LINC02254
AC002383.1
KCNE4
JAK2
AC091948.1
RSAD2
TWIST1
EPHB1
LINC02006
CDH11
MNDA
PLIN5
KLHL32
CREG1
AL390036.1
SALL1
LINC00390
VSIG1
ZNF683
AC010967.1
SLC31A1
ANXA3
PDE8B
PREX1
FAM189A2
PLCG2
LINC01230
IPCEF1
SLC7A8
TGFA
CADM3-AS1
LINC01362
KBTBD12
SV2B
AC114316.2
PPP1R16B
DTL
NKD1
CSF3R
AC087482.1
RALYL
GCH1
AC024901.1
NCF1
AC027013.1
RPS4X
LINC02506
SGPP2
ARHGAP28
TTC29
TENM1
PRAG1
FAM162B
MYLIP
AC006007.1
SORL1
AC087857.1
ADIRF
GTSE1
GLI3
IGHG1
APBA1
ZNF831
PLD3
CIDEC
ARL6IP1
LY96
NRG4
AC007001.1
KCNJ16
DNER
AL359633.2
IL21R
CCDC80
RPS12
SLC24A2
FTCDNL1
DLGAP1
TMEM236
KIAA1324L
XCL2
LINC01541
MAP7D2
CENPI
THBD
NETO2
ANOS1
TNFAIP6
NELL2
MUC16
PARP15
MKX-AS1
LINC01033
WDFY2
GPX1
NFASC
LINC01194
ARSB
KIAA1211
CHIT1
FGF9
DUSP6
ZNF365
EPS8
LINC02057
TFF3
MEI4
MT-ND4L
ISLR
LINC02389
ACTN4
ABCC4
MPP1
NEURL1B
ATP1B3
LINC01122
CRYAB
CRISPLD1
SLC4A4
NPNT
CAMK1D
KCNIP2
COL4A6
AC068875.1
AP1B1
ENC1
LINC02208
ANKRD7
FGD2
PKP1
C10orf107
ABCD2
IL1RAP
CFL1
RRM2
CEBPA
MCF2
AC108062.1
TMEM106A
EGFLAM
PNPLA2
LINC02515
ETS1
AL355102.4
CCR7
DPEP2
FAM160A1
AC138627.1
CASC20
LRMDA
ENOX1
PLA2G15
LEKR1
SNAP25
DSP
STK17B
GC
AL591686.2
AC079760.1
SH3GL3
AC019117.1
FIRRE
MAP3K7CL
OR51E1
Z98257.1
AL008726.1
PACRG-AS2
PAX9
AC096637.1
S100A2
XCR1
ADAM22
LMNB1
ITSN1
HLA-DOA
LIPC
ADAMTS12
CRYM
AL359710.1
AC125613.1
RARB
PIR
AC068633.1
CAVIN1
GRAMD1B
THRB-AS1
AC026523.1
RIN3
MID1
ITGA11
EBF3
LRAT
ABCC3
SLC16A7
RAMP3
LINC02133
PRR11
MB21D1
CIITA
STPG2
SIAH3
AC083923.2
ARHGEF26-AS1
FRMD3
TMEM182
ROR1
SEMA3A
UFL1-AS1
STOX1
EAF2
LINC00473
LINC01605
MARCH1
ERC2
DDIAS
MIR4713HG
RASSF9
AC006299.1
FPR1
PKIA
TGM2
B2M
AC114763.1
WSCD2
MYO16-AS1
PLCL2
CD3D
KIAA1755
STXBP5-AS1
KIAA1524
KCNAB2
NHSL1
LGALS9
AC009312.1
GCSAML
AL163932.1
EML6
KLF2
CXCL6
LINC01111
AC008456.1
AC100768.1
AL353746.1
KCNA7
LINC00906
LINC01889
TNFRSF11A
PLAT
LDLRAD4
LRRC1
MEOX1
LIFR
HSD17B2
FBLN1
EDA
SFTA1P
VAV3-AS1
TCTEX1D1
DSG2
MED12L
FLRT2
SNX10
SLC35F1
SH3GL2
LINC00840
RPL12
SIDT1
PART1
ELMO1
CACNA2D1
SLC24A3
DCSTAMP
CDCP1
AC006206.2
C1orf54
MGAM
MYO9B
HLA-E
DLC1
SLC22A15
AC007611.1
MYO1F
MALRD1
AC021351.1
LINC02046
NEK2
TDGF1
PLPPR5
CRB3
CCND1
PKNOX2
BARD1
LGI1
PRKG1
GPR137B
DOCK5
MYO16
AC064875.1
VAMP8
SEZ6L
LGR6
AF121898.1
STPG2-AS1
ADIPOQ-AS1
MBOAT1
RPL29
LPAR1
PCSK6
KCNJ15
SAMD12
PRAM1
LY86-AS1
AC004158.1
CLIC3
LINC01829
RPL23A
LINC02398
BCHE
CYTH4
SELP
LINC00559
SEMA6D
CADM3
AGFG1
AP002991.1
CDKN2B-AS1
AC008696.2
PCAT1
SERPING1
SIGLEC9
AC013565.1
C12orf42
BTLA
BMPR1B
ADCY7
NLRP3
RASSF4
AL592103.1
NETO1
AC008780.1
SGMS1
TNFRSF21
AL356022.1
ELAVL4
RPS23
SLC36A1
AC007656.1
AC091939.1
VIT
CCL8
KLRD1
AC037486.1
AC243829.4
SPINK5
GJA1
HTR1E
KCNN3
TKTL1
WFDC11
GDF15
AP000446.1
CFAP221
AL954650.1
C2orf48
CASC16
CDC25A
AC005580.1
CNIH2
SYTL5
LINC00506
RRAD
PARD6G
CACNB4
OSBPL11
MIR181A1HG
HIGD1B
DDAH1
EPHB2
AC093152.1
AL353784.1
CNKSR2
MMP2
LYPD6
CD24
INSC
TNFAIP2
COBL
CDH5
AC104596.1
NRG2
AL353613.1
LINC01481
AC099805.1
RPS19
COL6A2
NTN4
GFRA1
XRCC4
LINC00670
ZNF117
AC090204.1
BUB1B
AC112907.1
AL031123.1
TNFSF8
FRY
HEY2
DCDC1
MRO
TMEM200A
ATP5E
LINC02268
SLC22A9
WFDC8
ART3
STAMBPL1
LINC02226
FAM19A4
NOTCH4
COLGALT1
SHANK3
AC090630.1
IQCJ-SCHIP1
NRIP1
SLC5A4-AS1
AC004052.1
CCRL2
ADH1A
LRRC9
AL137789.1
LINC02550
PODXL
PLEKHO2
EHHADH
PCDH10
TRBC2
CBLN2
EPM2A
IGFBP7
FAM198B
IGSF11
AC090403.1
LINC01099
FOXC1
TLR4
MCOLN1
CASC19
SNX2
AC107973.1
CXorf21
RPS5
AC092614.1
AP001972.4
LY6G6C
SCGB1A1
AF130351.1
GABRG1
GALR1
S100A1
RPS8
IRF4
RPL37
WNT2
LUCAT1
TACR1
ANK2
NFATC2
FAM49B
LYST
DCHS2
CD82
TNS1
RPS2
MREG
TMEM178B
GPX3
TLR2
GIMAP8
AC005699.1
MFSD1
MMD
WT1
PLXNA4
PGR-AS1
AC022762.1
AL121748.1
AC245041.2
IFITM2
AC007681.1
HECTD2
TBX1
NRP1
APLNR
EGFL7
LINC01135
ZDHHC14
FAM117B
AC092264.1
SELL
PTPRE
AC099687.1
IL23R
AP001605.1
RPS6
TUSC5
RNF149
IL1RAPL2
FCGR1A
LINC00882
KLF4
LINC02198
JAKMIP1
RPL7A
EFHD1
RNF180
VIPR2
NR2F2-AS1
CPNE8
AC008957.2
PKP4
AF274856.1
GRM5-AS1
SGCD
SUCLG2-AS1
AC108477.1
AHSP
C6orf118
NAT2
GMFG
LINC02160
GFRAL
ZNRF2
RNASE6
HTRA3
BNC1
ADAMTS9
MT-ND6
WTIP
DPF3
AC006369.1
EPHA4
SGCG
CSTB
BIN2
SNTB1
DNAJC6
EYA4
AC090709.1
NCAPG2
ANKRD34C-AS1
TRAT1
AC004784.1
LINC00271
CFD
ARL4C
CYSLTR2
AC010511.1
AC096639.1
CREG2
TTLL2
ALDOC
RPS15
GFOD1
LHFPL2
PC
GNGT1
LRRC25
SAMD4A
OGN
F5
BASP1
AC093801.1
LINC01105
FGF12-AS1
AC006148.1
RPS21
RUNX3
CNNM2
SYNPR
GPR65
ADCY8
BRINP1
SPON2
RARRES2
AP000842.2
ADD2
IL15
WDR93
IPMK
CASC18
LRTM1
ADGRG1
AC008127.1
TEK
FAM83B
MUM1L1
BMP3
LINC01894
BEX5
RPS14
LHX6
RUNX2
AC011124.1
AC069503.1
AC079209.1
AL445430.2
SSTR1
GNAI2
LINC00581
CPXM2
CNR1
LILRB2
ZNF385D-AS2
THSD4
SPSB4
RPL34
MCTP2
FSIP1
COL21A1
SLC2A13
RAD51AP1
AURKA
CHST9
C1orf185
AC011503.1
CASC21
LAIR1
MLIP-AS1
MUSK
GLIS1
ZBTB7C
RPLP1
KCNJ10
SLC39A12
P2RY13
DAAM2
SULF1
ARAP2
DUSP27
STUM
AL355773.1
LINC02098
RPS18
ARHGEF6
LINC02516
MET
C3orf67-AS1
FAM83D
NR4A3
SNN
INPP5D
ARSJ
HAVCR1
LINC02257
IL1RL1
SYNDIG1
SORT1
ARHGAP6
ECM1
KIF20B
IFI6
RPLP2
AF130417.1
AP003181.1
ANO5
F8
VMP1
REPS2
AP002370.2
KRT7
RYR1
AC000061.1
SMOC2
ARL4A
EMP1
TDRD9
CX3CL1
ROR2
CLDN16
SLC14A1
FILIP1
C21orf62
AC007495.2
MBOAT2
GAB3
GPR85
ICAM1
RPS17
MYO5B
LGALS1
AC007923.4
HK3
MIR503HG
SUSD1
ICOS
ALDH1A2
LRGUK
INSIG1
ACP2
SYCP2L
AC104083.1
INHBA
LINC01049
FHIT
ABR
PKIB
DGAT2
AC004917.1
EPSTI1
AFAP1L1
CASC15
SPON1
RP1
BBOX1-AS1
AC022858.1
BAALC
NDST3
ATP8A2
SGO2
AC004656.1
AL671511.2
GALNT6
LINC01951
AC110772.1
NPHP3-AS1
AP000812.1
CDHR3
SLC22A25
NPHS1
ADGRG6
AL512380.2
C3orf67
IDO1
PLCH1
LRMP
INPP5A
SRGAP2B
AC128689.1
AC068286.1
AC096576.3
SLC12A8
AC074044.1
AL354896.1
ANKRD62
UGT8
MIR193BHG
PPM1H
AL354861.2
INHBA-AS1
LINC01846
ACTR2
AC009292.2
AC019183.1
LIX1
FYB2
IL1B
CLPSL1
PLS3-AS1
AP002856.2
TIMP4
KCND3
OPCML
LSAMP
AC005906.2
TFRC
AC022034.2
ASF1B
PCP4
AC008014.1
FKBP5
BACH1
ITGB5
TRIM9
IL12RB2
RPS11
TIGAR
DIO2-AS1
NCAPH
KLRC3
RBM46
SGTB
AC073834.1
AC092810.3
AC124045.1
AL135936.1
AP001961.1
COL11A1
OXCT1
DOK2
LINC01037
FBLN5
ZFPM2-AS1
JUN
TPCN1
GPR1
ZRANB2-AS2
DPT
JRKL-AS1
SLC7A14
AC113137.1
COLEC10
PRDX1
UTS2B
TSHR
FMO3
NEU3
ARPP21
LINC02450
CFB
LINC01277
PRICKLE1
TMTC2
BPI
NCR1
FAR2
EMX2OS
AC090092.1
C8orf46
CPPED1
KDM1B
SAMMSON
AC079950.1
TTPA
ANXA1
TPMT
AC099542.1
DPP4
AC109927.1
GAA
CALM3
FGF2
PRKCA
MGAT5
SCN11A
CAV1
IL1R1
LINC02519
HOXD10
PIF1
TNIP3
PLPPR4
AP002026.1
LINC01344
LIFR-AS1
IQCA1
LMCD1-AS1
FMN2
SYT4
KCNMB1
RGS22
RPS16
MMS22L
WFDC2
AC092078.2
GSTP1
BAALC-AS1
AC139713.2
PLA2G4A
C1QTNF3-AMACR
EMILIN1
NLK
SMPD3
ASXL3
CNKSR3
TM4SF18
STK33
AL158055.1
MPPED2
FOXC2
FOSB
SDC4
GAPDH
GPR156
GDAP1
AC246817.2
ADORA3
COL5A1
ASAH1
AC015878.1
UCP2
ADGRG3
AC004053.1
LINC01235
LINC01393
ARHGAP27P1-BPTFP1-KPNA2P3
OR51E2
HIST1H2BJ
SLC26A9
RGS18
LINC01822
TNFRSF11B
RNF220
CPEB2-AS1
SPATA18
MX1
AC027701.1
C1orf74
MDFIC2
AADACL2
AC125793.1
CSMD3
FCRL6
PLEKHG1
NEAT1
NLGN1
SLC28A3
CNTNAP3B
AL031280.1
EFNA5
RPS6KA2
AL160290.2
TSKU
PCOLCE2
AL589935.1
IGHG4
HACD1
EVI2B
CHSY1
TRPM2
AC008011.2
AL158198.1
PBX3
AC068643.1
SNHG27
AC027458.1
AL022329.1
AL662907.3
IL1RN
KRT80
AL592402.1
CADM2-AS2
MGLL
BICDL1
EBI3
EEPD1
SYNPO
AC021231.1
MARCH3
AC091940.1
LRRC17
PTMA
FGF1
MARK1
OLFML2B
LINC02301
MX2
FAM49A
MYRFL
SDC2
LINC01902
DISC1
ATP6V0B
C9orf72
RCAN1
PIK3CG
GUCY1B3
CLCN5
AP002075.1
NAA11
GPR63
GCNT1
CYSLTR1
TMEM74
AC128685.1
SPESP1
JAG1
EPAS1
RPL15
TEX15
BHLHE41
CRABP2
AC008991.1
BEND6
CCDC88A
PPP1R1C
FCGR1B
ABCG2
LRRC63
ADGRD1
AC133065.1
GLMP
AC003986.2
AC004264.1
AC005234.1
AC005996.2
AC007218.2
AC007342.5
AC008109.1
AC009262.1
AC021549.1
AC069544.2
AC090651.1
AC100774.1
AC116348.2
AC133528.1
AC138360.1
AC244034.2
AL117341.1
AL121584.1
AL121908.1
AL158070.1
AL160191.1
AL356055.1
AL358333.1
AL606760.3
AP000907.3
C8orf87
CFHR1
CHIA
CST2
HIST1H3A
HRASLS2
LINC01489
LINC01869
LINC01911
LINC02321
LINC02536
LTA
MRLN
MS4A5
NPHS2
NTF4
OR8J1
SDR16C5
SH2D6
SIGLEC6
SMCO1
TNFSF9
TPSAB1
TRAV13-1
RPL36
LINC01358
HSD11B1
RPL35
RNF144A
GLP2R
ITGA2
FCHO2
ANGEL1
DPY19L2
LINC01931
EEF2
LINC00648
TRAF3IP3
CTSE
PRKCQ
DTWD2
SOX18
PDLIM3
RPL10
FGR
DLGAP2
AC021086.1
IGF2
TNFRSF12A
ADM
ID1
KIAA1958
TMEM104
AC093893.1
AL157396.1
MYO10
MEF2C-AS1
RPL10A
MYCT1
CRISPLD2
LRRIQ1
IQSEC1
PKM
RPS27A
SOX6
ABHD5
C6orf141
KCNK17
BVES-AS1
Z83818.2
AL136131.2
AP001330.5
BICDL2
C20orf166-AS1
OR56A1
PPBP
ECHDC3
AC103987.2
SKA3
AC092916.1
FAM167B
ART4
LINC01133
CLIC2
LINC00944
AC026780.2
AC016885.2
AL357052.1
AL109920.1
AL138799.4
PDE4D
B4GALT6
CDYL2
LEPR
AC007389.1
ZFP36
SLC38A1
RACGAP1
C19orf33
SLC27A2
CRIP2
ZFAT
MACROD2
AL138881.1
LINC002481
TBX20
TRIM42
ASB2
AC011306.1
ARHGAP20
LY6E
MYOC
TGOLN2
TM6SF1
PI16
AC096711.3
KCNN2
AL078459.1
OSBPL6
ATP6AP2
SELPLG
C4orf32
C14orf39
FAU
NOS1AP
PRR9
FAM189A1
LINC01006
AC006305.1
WDR64
CXXC4-AS1
RPS24
RNF165
NAGA
ITIH5
PKHD1L1
LDOC1
GIMAP7
CHEK1
ENPP3
ICA1
VGLL3
TNFAIP8
FKBP15
DNAH9
NIPSNAP3B
LRCOL1
OVCH1
KL
FGFR2
KRT8
DTNB
HMGN5
STK32A
MUC6
LGALS3BP
IER3
TMEM132B
RNASEH2B-AS1
TSPAN7
CYTL1
MYHAS
CMTM8
AC009065.8
AL357054.2
TMEM244
AC087632.1
AC091182.1
CASC6
ENPP6
AC106820.2
SERPINE2
CPAMD8
AL136985.3
ADD3-AS1
BST2
ECT2
ISPD
MYO7A
MT-ATP8
AC004540.1
AC079015.1
LRRTM1
ADAMTS17
UBA52
GEN1
HAND2-AS1
AC097515.1
GLRB
THSD7A
SLC12A1
GAL3ST4
FBLN2
GCNT2
LAIR2
XCL1
AC010273.2
AP001599.1
GBE1
EPB41L2
ZBTB16
ARHGAP30
RPS3
CTHRC1
ROBO1
AC241644.2
EGR3
ATP10B
SLC18A2
AC139099.2
LINC00850
SOBP
AL139220.2
RDH10-AS1
NEURL2
TOB1
PLEKHO1
AC090124.1
FBXO2
RAMP2
LINC01762
SLC19A2
FHAD1
AC004870.2
FGD5
ALDH1L1
HLF
FAM78B
RBPMS2
ARMC4
KIFC1
AC009502.1
F2RL1
LINC02465
SESTD1
AP005329.2
AB015752.1
POF1B
LGALS2
CPEB4
RPL18
ADAMTS2
CRTAC1
COL4A4
RPL14
FARP1
AC084064.1
AC007879.3
AC109492.1
TCERG1L
KCNJ1
GALNT18
FANCD2
C2orf40
AUTS2
PALMD
LINC00158
ENOX2
MALL
SGSM1
PLAG1
SYT9
DNAH14
DAW1
GATA3
GRM7-AS3
AC011452.1
SHROOM4
ANGPT4
KLF6
CAVIN2
AC007513.1
ITGA7
ALDH1B1
MAP7
SEMA6B
RRM2B
RPL23
KREMEN2
TXNDC8
FAM13C
SRPX
AC010096.1
EVI2A
PIP5K1B
MAP3K1
KCNG3
RSPH4A
FAM196B
AL353681.1
ELN
MAL2
SPAG16
NT5DC3
CTTNBP2
SLC26A4
LAMA3
PIK3C2B
VASP
BTNL8
STMN1
SLCO4C1
AC027237.3
C1GALT1
PRSS36
AC008056.2
AC064805.1
AC087473.1
IGSF5
LINC01214
TMBIM6
HECW1
AC079760.2
AC005165.1
SCNN1B
PTGDR
AL139125.1
LINC01675
LRFN2
CD59
IMPG2
AC104211.1
AC106053.1
AL357054.4
CLEC1B
PI15
PSG1
AL645608.7
CRYGN
LINC00461
LINC02105
TEX46
UNC45B
PDK3
LIPN
CYFIP2
WARS
LINC02015
TNN
PAH
AR
METTL24
SLC15A5
TOX2
AL845331.2
HSD17B6
RASL12
CCM2L
AC106791.1
RFPL1S
LINC00535
HSP90AB1
AC066613.2
GLYATL1
DDX60L
PLPP3
FHL1
LGR4
EGLN3
AC046130.2
LINC01426
ABI3
RNASEH2B
AC044810.2
STX11
HOPX
LINC01197
PTPRD
CASS4
TMEM156
AC044810.3
GOLGA6L7P
CEP126
SNAP25-AS1
GATA6
DEPTOR
ATP10A
PLS1
AC105383.1
CCDC168
SULT1B1
ASTN2-AS1
HOMER1
XYLT1
RPL4
VEGFD
MXRA5
C20orf197
AC104653.1
GRM7-AS1
GDPD1
SCOC-AS1
LINC00298
ACOT12
SUSD4
TRPV2
LMNTD1
VNN1
FSHR
CDH4
NGF
MFGE8
AL359873.1
OSTF1
PRSS3
AC072062.1
CASP5
DHDH
NET1
GEM
KLF12
CARD16
PTCHD1
NINJ1
TMC3-AS1
CDC7
RHOBTB3
SGMS2
SNX7
SLC31A2
RPL30
CNDP2
AC138123.3
ANKRD44
AC009318.4
AC011591.1
AC012560.1
AC013472.3
AC025580.1
AC026471.5
AC040918.1
AC046158.2
AC082651.1
AC100844.1
AC127002.1
AC211486.5
AL023583.1
AL031275.1
AL450344.3
AL512274.1
AL596275.2
AL596330.1
AL670729.2
AP003128.1
APELA
C19orf84
CHST6
DLG3-AS1
HAMP
KRTAP5-11
LINC00492
LINC00551
LINC01596
LINC01648
LINC01687
LINC02473
OR1C1
OR52K2
PNMA5
SKA1
TREML4
TRIM72
TRPC5OS
HERC6
CLIC4
PELI2
CTTNBP2NL
NRCAM
MIR181A2HG
AOX1
BHLHE40-AS1
OVCH1-AS1
AL031316.1
MGC32805
ACAP2
ST8SIA1
AC139749.1
AL391152.1
AL445623.2
LINC02302
TAOK3
LYPD6B
RPS15A
NOD2
AP005230.1
ASPH
CD7
TMEM217
EPCAM
DGAT2L6
HDX
DNAH7
ITGA5
PDE7B
UBB
FMNL3
GZMM
PPP4R4
PKP2
ATP6V1B2
C1QTNF1
CALR
AC090579.1
RPL35A
MYL6
AC016229.2
FAM89A
TMEM170B
LINC01924
TRIM54
AC004870.4
GRHL1
AC087477.2
ECSCR
SPTA1
AC097662.1
VMO1
MYH15
DLEU2
EDNRB
MOGAT1
GNAO1
MB21D2
WIPF3
RPS6KA6
THRSP
BX322234.1
RAI14
LINC00877
AL365275.1
LINC01320
LINC00645
LINC01412
ZMAT3
CSRNP3
SLC8A1-AS1
PTGFR
SEMA3G
AC011369.1
LINC01258
THBS2
PIK3R3
C20orf194
PPP2R2C
TPSB2
CCL4L2
IGHGP
LHX9
GPR55
AC024909.1
CLEC1A
PTGIR
SLC4A9
AC078785.1
PLCB1
PSMA1
SH3BGRL
SLAIN1
AC092813.1
GRIA3
IRGM
AC010132.1
AC087627.1
C3orf22
CDT1
CIB4
LINC00976
AL136309.2
GAGE10
AC011257.1
AL137026.1
SLC25A31
PTGDS
RNF103-CHMP3
HLA-DQB2
HS3ST1
AC103770.1
PLEKHB2
RXRA
CD8A
AC124861.1
CRHBP
AC040174.1
LINC02234
CCDC186
CACNA1H
RHOBTB1
AL138924.1
FOXS1
LILRA1
HIST1H2BC
AC097717.1
BEX1
AC079467.1
GRIA2
WFDC10B
MTCL1
LINC01284
MT1X
MMP2-AS1
DSC2
UGT2B4
PPP1R9A
LINC02269
FAM81A
PIP4K2A
PPP1R3C
KCTD1
HERC5
AMPH
RAB38
AQP9
ICAM2
RFX4
SPP1
SLC7A4
METRNL
AC108941.2
RAMP1
ARHGAP44
MIR99AHG
SLC15A3
ARMC2
PRDM1
STK26
FAM222A
NR6A1
RPS7
FKBP1A
BLVRA
THY1
C2orf83
AC004947.1
BBOX1
AC024563.1
AC010735.2
LHFPL6
SETBP1
LGALS12
CDO1
MGST1
RARRES3
UNC79
FREM2
HSF5
CD33
NCS1
RPL13
SMCO4
KIF15
SH2D3C
AC091078.1
AC046195.1
NOVA1-AS1
TRPV4
AC008074.1
CSRP2
AC006974.1
TRIM55
AC010624.3
EGR2
HOXA11
QRFPR
LYPLAL1-AS1
CDON
FLVCR2
CSGALNACT1
AC010609.1
AL137145.2
AC007879.1
LINC02407
AC099062.1
AF230666.2
AL929288.1
LINC02027
AC078828.1
DRD1
ESPL1
LINC02312
SPAG5
AC119674.1
AC109462.2
WAS
CR1L
TBC1D1
NEDD9
AC005833.2
RPS29
RPL27A
CDS1
TIE1
ACSS2
NFKBIZ
AC008250.1
WWP1
PANK1
STEAP1B
SPAAR
FRMD6
DNAJC5
LRRK1
AL163952.1
GPR19
HCAR3
UBE2U
AC090673.1
DKK3
KDR
COLGALT2
TGFBR3
CFAP58
CD69
RPL11
CCDC83
TNFSF14
GALNT3
TSPAN2
CLIP4
AC093010.2
PARP8
STIL
MMRN2
PLA2G16
CXCL12
CCDC68
CC2D2B
CYP3A5
AL031686.1
PRNP
LINC01416
RAB8B
CA3
L1CAM
PRKCQ-AS1
PTX3
AC106894.1
ABRACL
AC092142.1
AP003025.1
AC091906.1
MGC27382
AC092598.1
MLLT3
LINC02172
MYO1D
ARHGAP31
ABHD12
ANKS1B
SLC12A7
SYTL3
CHD7
ADRA1B
AC009387.1
CD6
GALM
SHC4
CD200
AP003555.1
AP003555.3
FAM26F
AC011247.1
AC136489.1
RETREG1
CALM2
LINC01606
LINC02422
GPC6-AS1
SFRP1
GPR183
ID4
F3
AC015908.2
CPE
CRB1
CAB39
AC004585.1
AC021192.1
AC068658.1
AC092673.1
AC115622.1
AC117465.1
AC131532.1
AL136964.1
AL356476.1
AP006545.2
APLN
LINC01559
MYH8
RASD2
FAM107A
DTNA
AC078850.2
FANCI
ANXA8L1
CILP2
MKRN3
QPCT
HSPG2
PRUNE2
ZSCAN31
ABHD3
TM4SF19
RASAL2
RFC3
AC005261.3
AC005618.1
AC008567.3
AC009803.2
AC010538.1
AC011731.1
AC019257.1
AC022730.4
AC027807.2
AC062032.1
AC068473.3
AC073263.1
AC079340.1
AC079610.2
AC091826.2
AC091979.1
AC092068.3
AC092821.1
AC099568.2
AC100832.2
AC116096.1
AC118470.1
AC135012.3
AC243547.3
ADAD1
AF111167.2
AL031676.1
AL080251.1
AL132996.1
AL136439.1
AL139240.1
AL157373.2
AL353708.1
AL360270.2
AL592486.1
ATP5L2
CACNG5
CTRC
GOT1L1
ICAM4
IGHD
KIR2DL1
KLRC2
LINC00500
LINC00570
LINC01280
LINC01361
LINC01857
LINC02401
LRRIQ4
MROH2A
PATE4
PCDH20
PRKCZ-AS1
PVALB
PWRN3
RFX6
S100A14
S100A3
SSMEM1
TMCO5A
TMEM105
WFIKKN1
ZFY-AS1
ZRSR1
EMILIN2
TMEM98
EPB41L1
JARID2
AC004470.1
AL390866.1
IL26
PSMA8
PTTG1
SLC26A1
RAB7B
AC103736.1
PLK2
SOX17
FAM26E
JPH1
LINC02005
CCR9
AC016907.2
PPP1R42
IGFBP5
SERTM1
TPM1
AC119868.2
SLC9A3R2
LINC01839
LINC02355
KANK4
IL2RG
CAP1
CXCR4
C1orf21
TUSC3
DUSP1
PRR5L
DPH6-AS1
CFAP54
AC097347.1
TMEM154
NUGGC
TWIST2
LINC01645
CLYBL
TRPC5
ARL5C
GATA1
SLC6A15
C4orf50
CTSG
LINC00469
AC098679.1
AC010175.1
ZMAT4
CRYBG1
AC068413.1
RPS9
FNIP2
TINAGL1
KLK11
AC007163.2
ACTN1
PRCP
FLRT3
AL365273.2
ARRB2
CCDC158
COX7A1
RDH10
AHNAK2
AL390729.1
GPRC5A
RPL13A
LINC02100
C2CD2
CEACAM1
THSD4-AS1
KIAA1551
PPFIA2-AS1
TMEM151A
AL354754.1
GNS
AOC1
INSRR
ST6GAL1
HES1
CTSW
AKR1C3
CRIM1
ADAMTS9-AS1
OR3A2
KIAA0513
CAV3
SNX30
SCN3B
GLCE
SNAI2
SYT16
SH2B3
HEPH
SLC20A1
NEO1
AL121821.1
AC092535.3
TSPAN18
NPY5R
AC005550.3
AC006269.1
SH3BGRL2
DPYSL3
SMYD2
ARRDC3-AS1
GNA14
AC004828.1
RPL38
CHN1
CD81-AS1
IFIH1
AC007319.1
SMURF2
AC087897.2
ARHGEF39
TRIM50
TRIM7
AC090371.2
PLA1A
PCAT29
LXN
IFI30
DENND3
SCML2
ZC3H12B
SKIL
AL365203.1
AF250324.1
P2RX1
AC245123.1
AF123462.1
AL138694.1
BTNL3
DUSP8
OR4N2
AC003988.1
NFIA-AS2
SHROOM3
AP001341.1
PAK1
AC110009.1
AC026333.3
PXDN
HSPB1
AP000915.2
GAREM1
AC092155.1
ADARB2
FAAH2
AC015914.1
PLPPR1
C2CD6
RPL37A
MAMLD1
TSPAN1
KCNH7
OSTN
SCGB2B2
PLCXD2
SLC18B1
GPR171
LRRC32
UBA6-AS1
AC112487.1
PFKFB2
CD180
CANX
SLC6A1-AS1
C15orf48
FAM135B
NECTIN3-AS1
SLC7A10
GJA4
LIMD2
TRPA1
ARHGAP4
AJAP1
AC092944.1
BMP2
CTNND2
SRPX2
CDKN2B
LAP3
AC100863.1
AL049812.2
AL138966.2
LINC02081
AC026992.1
GIF
TROAP
ZCCHC18
AC002472.1
DCLK3
SPINK6
AC097716.1
ARNT2
RAP2C-AS1
SH3RF3
CTSA
AL445472.1
DCK
SLC27A6
AC092431.1
FFAR4
MME-AS1
AC078923.1
RGS10
PCBP3
FAM213A
PKIA-AS1
AC009229.1
AC083949.1
AL020994.3
MYH4
VGLL1
AC006329.1
AL136040.1
CEBPB
TGFBR1
LEP
MCOLN3
SLC16A6
NEB
AC063979.2
RBM44
AIFM2
AC124657.1
LINC01392
PATL2
ABI3BP
CCNB1
ANKRD33B
GINS1
TNFAIP8L3
LINC00519
TSPAN8
SLC5A4
AC091212.1
CA1
RASD1
LAMC2
DOK5
ACSM1
AC018552.2
KIAA1644
AC010547.3
DES
SLC22A1
WDFY3
NCOA4
ST8SIA6-AS1
SLC7A1
LINC01031
AC124947.1
AC008592.2
HSP90AA1
MOB1A
C1QTNF7
LINC00426
JDP2
DNAH5
IL1RL2
ADH1B
AC024940.1
CSTF3-AS1
FGD3
AC027312.1
PACRG-AS3
AL161896.1
TACSTD2
AC026369.3
NTS
SYT10
DIAPH1
MIR3681HG
GBP5
LINC00982
AC009154.1
LINC00499
TEX48
AL513318.2
AC010181.1
WT1-AS
SELENOM
SPATA6L
ZBED3-AS1
SNX31
CD40LG
CYB5RL
ILDR2
RASSF2
ALOX15
WNK2
CPB2-AS1
SKAP1-AS1
UST
LURAP1L
CD248
SRGAP2
AL589740.1
RACK1
TIGIT
LCA5
MAN1A1
MCOLN2
DSCAS
FIBIN
LINC02202
CXCL16
CPED1
ANGPTL4
KLHL3
FLT4
DIRC3-AS1
GYPE
HELLS
MBNL3
AL596218.1
APOL6
AC110760.1
SLC12A2
AC008121.3
AC009139.1
AC016598.1
AC068985.1
AC087242.1
AC245128.3
AC245519.1
AL138976.2
AL360014.1
AL391425.1
AL441883.1
AP000892.2
AP001973.1
ATP2B3
GDF9
LTK
PLG
SLC17A1
TRGV2
ZNF197-AS1
AC007922.2
AC092114.1
AC092364.1
AC092652.3
AC114814.1
AL049712.1
AL358933.1
AL390067.1
AL590640.1
ARHGAP8
CASR
CDHR1
EEF1A2
EMILIN3
FAM57B
GPC5-AS1
HBD
HRK
HTR3E-AS1
HYAL4
LINC00900
LINC01044
LINC01415
PCDHA1
PMP2
SMCO2
SMIM9
SYT6
RAP2A
TMEM178A
BICC1
P2RY6
TMEFF2
IL18RAP
SHC3
PTPRM
ERP27
DACT3
COBLL1
AL603840.1
WDR78
CNTNAP3
AL158850.1
MDK
FOXM1
PLEKHA2
AC100803.3
MAPK4
C4orf47
SHTN1
AC111188.1
KLHL6-AS1
TAS1R1
TK1
AC116366.1
NUDT11
RECQL4
AC090802.1
C1QTNF9
LEXM
LINC01594
TEX26
TMED3
GLRA2
LINC02250
LINC02224
ABCG1
TES
TAGLN2
CFTR
AL136088.1
RFLNB
CAPS2
IL4I1
GLIPR2
SCG5
NECAB1
AC022126.1
AC105285.1
AC019130.1
FIGN
REL
CCNT2-AS1
MICAL2
AC007861.1
AC011524.2
AC096669.1
ADAMTS20
AL807757.2
FLJ22447
HSPA6
RAB3B
AL021391.1
LINC02150
PGM2L1
SPATA17
STS
ANKDD1B
NXNL2
PEX11A
SPTLC3
NDRG4
CABLES1
GPR20
GCSAM
CAPN6
HSPH1
AC104078.2
PLPP4
KCNH8
TREM1
AL353616.2
KIF24
HORMAD1
ELOVL6
AC005280.1
FOXN4
LINC00920
PLD4
RAC2
SLITRK4
AC006115.3
GRM3
COQ2
INHBB
AC005609.5
LITAF
ARHGAP42
RPL27
SLC22A23
SERF2
MAPK10
PAQR3
MEDAG
WDR11-AS1
HSPA1A
ORC6
AC079385.1
AKAP12
TMEM26
LDLRAD3
MCF2L
AC105942.1
FAM177B
TIPARP
VWC2L
AC093297.2
SIPA1L2
DIRC2
AC090825.1
CCDC88C
P2RY10
AL136298.1
PMP22
NCF2
AC079793.1
ZPBP
EMB
KIAA0319
PARP9
KLRG1
MTHFD2
ADCY1
HEPACAM
LINC01185
LRP12
SMIM2-AS1
MOB1B
CRNDE
MGARP
ANKRD6
GIMAP6
AC016705.2
LINC01268
NAP1L3
STX17-AS1
PCAT19
ANKRD20A8P
HEG1
WIPF1
LOXL1
ATOH8
AP003025.2
SIGLEC7
LINC02331
COL4A3
KCNB1
LTBP2
HNF4G
CDC25C
ZEB1
AIG1
HFM1
C3orf58
ARAP3
FMNL1
STARD8
GAB2
IL6R
HSPA8
OAS1
SLC22A10
PPP1R1A
AC009313.1
SVEP1
ANKRD45
AC099753.1
NAALAD2
SLC38A4
VIPR1
LINC00612
LFNG
MVB12B
CECR2
SLC9A2
GALNT5
LINC02469
PTPN5
ETV6
LINC02102
CD300A
MCL1
COL4A5
STAT1
BOC
AC092674.1
AL356258.1
LINC02405
SOCS2-AS1
SGK1
AP005436.3
C3orf84
LINC02056
HTR3E
LRFN1
S1PR5
FERMT1
CCNG2
VTN
REXO5
AFAP1L2
SERPINI1
AC074033.2
E2F3
FAM184A
DOCK3
S100B
DLGAP1-AS4
AL035446.1
TBX15
MGAM2
CLRN1-AS1
PFKFB3
ZCCHC2
TBC1D4
SLAMF9
SULT1E1
AC109826.1
LINC00939
HAP1
AC117944.1
LINC01901
NDFIP2
BSG
FOXN2
IER2
AL590094.1
RFX8
FAM20C
XKR9
C14orf132
DENND2A
PTP4A1
RFESD
PALM2
NBAT1
GPR137C
RHOB
TMEM150C
AC004870.3
AC008574.1
AC087623.3
AC087636.1
AC091691.2
AC093305.1
AF213884.3
AL589743.4
ASZ1
C8orf89
DLX6-AS1
FBXO43
GNB3
LINC01704
LINC02330
PTPRD-AS1
TMEM26-AS1
LDLR
ASAP1
AC061992.1
HRASLS
IZUMO3
LINC00596
MYH1
LINC00571
DENND1B
FOLH1
AC023590.1
MID2
ANTXR2
FZD7
SPNS2
AP001825.1
TCF21
PRKAA2
DUSP5
TCF19
GLI2
LAMA1
HSP90B1
RHOA
OSBP2
SH3BGR
ATP8A1
AL591368.1
EFHD2
UBASH3A
CKB
TGFB3
PPM1E
ITM2A
ARFGEF3
AC021546.1
GNA14-AS1
ZGRF1
CLTB
MKL2
C15orf41
JCAD
FXYD7
SHANK2
RNF175
RBM20
RAB11FIP1
MPZL2
JAZF1
SPRY4-AS1
HYAL2
LCLAT1
AP001604.1
SPA17
B4GALNT3
SLC9C2
MSN
AL161457.2
AC002401.2
AC007278.2
AC007920.2
AC008619.1
AC008735.1
AC009133.3
AC010451.1
AC023669.2
AC068313.1
AC068775.2
AC079362.1
AC090409.2
AC093909.4
AC104066.2
AC104113.1
AC109347.2
AC117386.1
AL118508.2
AL157832.2
AL583810.2
B3GALT1
FNDC7
KIAA1210
LBX2-AS1
LINC00167
LINC00237
LINC00392
LINC01853
LINC02026
MGAT4D
OGFOD2
PROZ
RDM1
SCNN1G
SLC4A1
TMPRSS13
TRGV8
TUSC8
UBXN10-AS1
UMODL1-AS1
WFDC13
WNT7B
AC004069.1
AC007216.1
AC009086.2
AC009185.1
AC012511.1
AC073352.2
AC106028.4
AC108134.4
AC132807.2
AL078604.2
AL078612.2
AL096677.1
AL354733.1
AL592494.3
AP005271.1
CFAP65
CFC1B
GJC3
GPAT2
LINC02153
LINC02357
NME8
PABPC5-AS1
SAA2-SAA4
SEC23A-AS1
SLC22A8
TTLL8
ZFP92
UNQ6494
AP000311.1
SP140
AP001347.1
PTPN6
AP002986.1
MTHFD1L
AC103876.1
LINC01117
HAGLR
ATP2B2
TPD52L1
RASEF
AC055758.2
SLC39A4
GAPT
RASGEF1C
LINC02523
SH2D1A
CD22
MROH2B
AL445193.2
AC093895.1
CASC11
TMEM92-AS1
AC106729.1
SMIM17
LINC00407
HSPBAP1
GPBAR1
ETV1
AC109811.1
TBC1D31
AC093330.1
FOXL1
LINC01667
AC090572.2
AL049838.1
CNFN
ZNF385D-AS1
LILRA6
LINC01913
WDR76
NOP53
HGNC:18790
AC107021.1
ERV3-1
PARVB
SNX3
HUNK
AC023421.2
CMTM7
RCN3
LRIG1
IL34
AC005264.1
AC022796.1
AC141930.1
HRC
SERTAD2
AL035701.1
AP000959.1
RGS2
AL357060.2
LRRK2
NABP1
OTC
CHRM2
CD244
DIAPH3-AS1
LRRC8B
IL20RB
PLXNC1
VIM-AS1
SCLT1
RNF130
KANK3
FAM110D
TTC23L
ITGA3
TBC1D32
SSH2
LACC1
GNG4
UNC5B
MAST4
AL592043.1
AC024382.1
PLEKHA7
MLXIPL
TAGAP
AC016723.1
RBPMS
HDAC2-AS2
BTK
ADGB
CD37
EMC10
CCDC152
DCAF12
ACADL
SMIM3
PGD
BCAP31
CA12
FAM129C
EOMES
AL157895.1
SNCG
DNAJC18
ZNF98
HOOK2
CXXC4
ARPC4
EGF
ACE2
AL160400.1
ERMN
LINC02188
AC002465.1
AC023669.1
CHL1-AS2
LINC01257
CEP152
DSG3
ROR1-AS1
LINC01990
NCF4-AS1
MAEL
ADGRE1
AC078882.1
PCDHB10
AC074351.1
C1orf146
REEP1
ALDH1L1-AS2
AKR1C1
COX4I1
ATP11C
RPS20
GRM8
PMEPA1
JADE3
OTUD7A
ADAM32
AC007881.2
AL136987.1
LINC01692
SCHLAP1
AC100801.1
SLC25A5
ABAT
C12orf40
AC004687.1
GNA15
AL451048.1
ISG15
AC087284.1
KIAA0825
ATP6V0D2
PLA2G2C
PSG11
C19orf67
ATAD2
CDR1
CBLN4
AC004943.2
PLOD2
AVEN
SMC5-AS1
AC104827.1
LNX2
CD302
AL158071.3
PCOLCE
ZNF521
YIPF7
CDKN3
PGM5P3-AS1
RAD54L
MYLK4
USP6NL
DNAH6
C3orf70
SLC16A1
LRRN1
MYO1G
ANTXR1
PAX6
CCR2
LY6H
SEZ6L2
GSTM3
AL354809.1
LINC00908
TLR8
AC107029.2
GRAMD4
PLCB2
AC006581.2
VOPP1
AP000462.1
HLX-AS1
SCPEP1
SLITRK5
SPINK9
RHOG
CBL
PKN3
PLAC9
AC244517.10
SCARB1
POLR2L
LINC01252
STXBP2
AC079465.1
CACNB2
LINC00862
ARPC3
AGPAT4
DOC2B
THSD1
PALD1
SLC6A1
AC008514.1
APOB
CCDC144NL
GADD45G
CFC1
ACSM4
DUSP4
PAX8
RCAN3
FREM3
CAB39L
LINC01799
KLHL31
DNASE2
NPSR1
AC093879.1
AC009063.2
CHRNA7
CLEC4E
AC002456.1
AC087269.1
LPA
FAM126A
SH3KBP1
UQCRB
ATP7B
CD209
TRPM1
VNN2
MPP6
BTF3
USH2A
AC005993.1
AC023034.2
AC080013.6
AC090673.2
AC091544.2
AC133565.1
AL021396.1
AL358852.1
AP001092.1
BSN-AS2
CEP83-AS1
IGSF11-AS1
LINC01144
LY6G5C
TRGV7
WNT16
AC008805.2
AC015689.1
AC027271.1
AC092892.1
AC093390.1
AC099499.1
AC111152.2
AC145285.4
AL162591.3
AL359636.1
AL445430.1
AL645608.8
AP000253.1
CCDC160
CMA1
ENOX1-AS1
KIAA1024L
LARGE2
LINC02154
LINC02363
LINC02493
NKX2-3
SZT2-AS1
TMEM63C
TNFRSF17
TOX3
ZGPAT
AC004241.3
AC044849.2
AC067969.1
AC090159.1
AC099329.2
AC099506.1
AC133794.1
AC136469.1
EPPIN
GLUD2
LINC00994
MACC1-AS1
MZB1
SLC22A24
WDR87
PRTFDC1
C10orf128
TDRKH
AC137770.1
AC020909.2
PCA3
CPLX2
CUZD1
KIAA1549L
SCN8A
PDGFRA
SLC4A10
ACAN
PPP1R12B
SGPP1
TMEM150B
MCU
ATP1B1
CALN1
SH3BP4
SYNGR2
SLC16A2
AC092111.3
AC103746.1
AC110760.2
MCHR2
TMEM200C
VRTN
AC013460.1
AC072061.1
EDAR
LINC01339
LINC01936
PARD3-AS1
TNFRSF9
XPNPEP2
AC005837.3
LINC01070
LINC01771
LINC01891
MED14OS
PSG3
ZFAND5
STX3
AC097537.1
CGNL1
MIR100HG
ZNF883
AOC3
APOBEC3A
CNTN2
FA2H
FCAR
FGF16
HFE2
IL11
ISY1-RAB43
MRPS24
SLC30A8
FRMPD1
PLK1
AC243829.1
SCNN1A
PTGER4
AL513211.1
AEBP1
LAMC1
SLC41A2
KIAA1671
AC099066.2
AC095350.2
PLSCR2
ACER2
CFI
IL17RA
SYBU
AL162464.2
HILPDA
GABRG3
AC020916.1
CEPT1
C6orf10
AC022360.2
VLDLR-AS1
CORO2B
ISOC1
SEPT6
CPEB2
COL27A1
GADD45B
AC107067.1
ADAM8
AL137024.1
CD3E
ACSM5
ZNF93
NEDD1
OPN3
LRP11
