0.11440677966101696
0.0874785591766724
0.09523809523809527
0.14070351758793978
0.04040404040404041
0.04585152838427947
0.05989583333333335
0.14070351758793978
0.04040404040404041
0.05989583333333335
0.0806451612903226
0.10412573673870333
0.0806451612903226
0.07458143074581432
0.11440677966101696
0.04585152838427947
0.15789473684210528
0.033605812897366034
0.14070351758793978
0.0642954856361149
0.0874785591766724
0.03797468354430379
0.02205882352941177
0.12643678160919536
0.01420630018529957
0.031634446397188064
0.09523809523809527
0.043022035676810066
0.09523809523809527
0.02642113690952762
0.09523809523809527
0.14070351758793978
0.052256532066508335
0.12643678160919536
0.04891922639362913
0.04585152838427947
0.05989583333333335
0.011560693641618498
0.04040404040404041
0.0642954856361149
0.09523809523809527
0.09523809523809527
0.055900621118012424
0.02205882352941177
0.052256532066508335
0.11440677966101696
0.03797468354430379
0.069164265129683
0.04040404040404041
0.03797468354430379
0.11440677966101696
0.01724137931034483
0.0874785591766724
0.04040404040404041
0.043022035676810066
0.03797468354430379
0.11440677966101696
0.05989583333333335
0.055900621118012424
0.24000000000000005
0.10412573673870333
0.031634446397188064
0.17901234567901242
0.043022035676810066
0.09523809523809527
0.052256532066508335
0.205574912891986
0.0642954856361149
0.10412573673870333
0.043022035676810066
0.05989583333333335
0.028052805280528056
0.12643678160919536
0.019525801952580198
0.24000000000000005
0.07458143074581432
0.04891922639362913
0.031634446397188064
0.02205882352941177
0.04040404040404041
0.029787234042553193
0.09523809523809527
0.11440677966101696
0.0806451612903226
0.11440677966101696
0.0642954856361149
0.043022035676810066
0.14070351758793978
0.15789473684210528
0.12643678160919536
0.45323741007194257
0.029787234042553193
0.055900621118012424
0.12643678160919536
0.15789473684210528
0.0642954856361149
0.11440677966101696
0.029787234042553193
0.043022035676810066
0.11440677966101696
0.17901234567901242
0.069164265129683
0.0874785591766724
0.05989583333333335
0.10412573673870333
0.04040404040404041
0.0642954856361149
0.07458143074581432
0.0806451612903226
0.0642954856361149
0.069164265129683
0.0642954856361149
0.02642113690952762
0.09523809523809527
0.03797468354430379
0.09523809523809527
0.069164265129683
0.04040404040404041
0.069164265129683
0.10412573673870333
0.02205882352941177
0.031634446397188064
0.0642954856361149
0.069164265129683
0.055900621118012424
0.12643678160919536
0.09523809523809527
0.069164265129683
0.069164265129683
0.02642113690952762
0.0874785591766724
0.0874785591766724
0.0874785591766724
0.0874785591766724
0.04585152838427947
0.15789473684210528
0.17901234567901242
0.0874785591766724
0.07458143074581432
0.04891922639362913
0.02642113690952762
0.09523809523809527
0.0874785591766724
0.205574912891986
0.04585152838427947
0.020758768790264857
0.0806451612903226
0.04585152838427947
0.15789473684210528
0.02642113690952762
0.04585152838427947
0.031634446397188064
0.10412573673870333
0.09523809523809527
0.09523809523809527
0.055900621118012424
0.02642113690952762
0.035714285714285726
0.04585152838427947
0.029787234042553193
0.020758768790264857
0.10412573673870333
0.0874785591766724
0.17901234567901242
0.04891922639362913
0.14070351758793978
0.10412573673870333
0.24000000000000005
0.035714285714285726
0.09523809523809527
0.035714285714285726
0.14070351758793978
0.10412573673870333
0.6274509803921577
0.02205882352941177
0.029787234042553193
0.035714285714285726
0.12643678160919536
0.02642113690952762
0.12643678160919536
0.07458143074581432
0.04585152838427947
0.055900621118012424
0.04891922639362913
0.10412573673870333
0.01618122977346279
0.055900621118012424
0.029787234042553193
0.043022035676810066
0.15789473684210528
0.10412573673870333
0.018354860639021076
0.04891922639362913
0.012404016538688717
0.03797468354430379
0.035714285714285726
0.11440677966101696
0.02488335925349923
0.052256532066508335
0.031634446397188064
0.043022035676810066
0.02205882352941177
0.0642954856361149
0.04040404040404041
0.0874785591766724
0.0806451612903226
0.11440677966101696
0.055900621118012424
0.028052805280528056
0.052256532066508335
0.031634446397188064
0.055900621118012424
0.14070351758793978
0.05989583333333335
0.069164265129683
0.03797468354430379
0.05989583333333335
0.14070351758793978
0.052256532066508335
0.07458143074581432
0.055900621118012424
0.14070351758793978
0.11440677966101696
0.04040404040404041
0.03797468354430379
0.11440677966101696
0.028052805280528056
0.11440677966101696
0.055900621118012424
0.04891922639362913
0.03797468354430379
0.12643678160919536
0.033605812897366034
0.013285024154589374
0.2863849765258214
0.05989583333333335
0.14070351758793978
0.069164265129683
0.07458143074581432
0.0642954856361149
0.031634446397188064
0.0642954856361149
0.12643678160919536
0.205574912891986
0.02205882352941177
0.0642954856361149
0.10412573673870333
0.04585152838427947
0.033605812897366034
0.05989583333333335
0.15789473684210528
0.0806451612903226
0.10412573673870333
0.05989583333333335
0.03797468354430379
0.0642954856361149
0.07458143074581432
0.04585152838427947
0.0806451612903226
0.04040404040404041
0.15789473684210528
0.055900621118012424
0.0874785591766724
0.04891922639362913
0.10412573673870333
0.069164265129683
0.02642113690952762
0.05989583333333335
0.043022035676810066
0.07458143074581432
0.052256532066508335
0.04585152838427947
0.031634446397188064
0.17901234567901242
0.14070351758793978
0.02205882352941177
0.033605812897366034
0.02642113690952762
0.05989583333333335
0.04585152838427947
0.0806451612903226
0.11440677966101696
0.24000000000000005
0.11440677966101696
0.052256532066508335
0.069164265129683
0.10412573673870333
0.05989583333333335
0.14070351758793978
0.04891922639362913
0.0642954856361149
0.0874785591766724
0.0234315948601663
0.205574912891986
0.0642954856361149
0.05989583333333335
0.069164265129683
0.17901234567901242
0.03797468354430379
0.052256532066508335
0.11440677966101696
0.04585152838427947
0.03797468354430379
0.03797468354430379
0.04585152838427947
0.020758768790264857
0.033605812897366034
0.04585152838427947
0.055900621118012424
0.15789473684210528
0.14070351758793978
0.043022035676810066
0.17901234567901242
0.09523809523809527
0.15789473684210528
0.04891922639362913
0.04891922639362913
0.029787234042553193
0.09523809523809527
0.03797468354430379
0.035714285714285726
0.0806451612903226
0.028052805280528056
0.055900621118012424
0.15789473684210528
0.02205882352941177
0.14070351758793978
0.14070351758793978
0.0806451612903226
0.052256532066508335
0.14070351758793978
0.09523809523809527
0.01724137931034483
0.0874785591766724
0.04585152838427947
0.02642113690952762
0.14070351758793978
0.043022035676810066
0.04040404040404041
0.02488335925349923
0.029787234042553193
0.069164265129683
0.02488335925349923
0.0874785591766724
0.02205882352941177
0.12643678160919536
0.10412573673870333
0.12643678160919536
0.11440677966101696
0.0874785591766724
0.24000000000000005
0.03797468354430379
0.033605812897366034
0.07458143074581432
0.069164265129683
0.04040404040404041
0.0874785591766724
0.04585152838427947
0.052256532066508335
0.0642954856361149
0.09523809523809527
0.14070351758793978
0.05989583333333335
0.031634446397188064
0.11440677966101696
0.033605812897366034
0.019525801952580198
0.12643678160919536
0.0874785591766724
0.02642113690952762
0.10412573673870333
0.019525801952580198
0.0874785591766724
0.043022035676810066
0.0874785591766724
0.205574912891986
0.069164265129683
0.09523809523809527
0.205574912891986
0.033605812897366034
0.03797468354430379
0.0642954856361149
0.14070351758793978
0.02205882352941177
0.019525801952580198
0.11440677966101696
0.031634446397188064
0.09523809523809527
0.04040404040404041
0.035714285714285726
0.0642954856361149
0.04891922639362913
0.09523809523809527
0.09523809523809527
0.14070351758793978
0.031634446397188064
0.0874785591766724
0.0874785591766724
0.0806451612903226
0.04040404040404041
0.17901234567901242
0.031634446397188064
0.015170670037926678
0.04585152838427947
0.17901234567901242
0.0874785591766724
0.055900621118012424
0.069164265129683
0.04040404040404041
0.10412573673870333
0.07458143074581432
0.17901234567901242
0.031634446397188064
0.052256532066508335
0.02642113690952762
0.055900621118012424
0.035714285714285726
0.028052805280528056
0.04585152838427947
0.0806451612903226
0.0642954856361149
0.10412573673870333
0.14070351758793978
0.0234315948601663
0.07458143074581432
0.04585152838427947
0.02642113690952762
0.04585152838427947
0.07458143074581432
0.0874785591766724
0.12643678160919536
0.12643678160919536
0.043022035676810066
0.043022035676810066
0.0874785591766724
0.05989583333333335
0.01618122977346279
0.09523809523809527
0.033605812897366034
0.069164265129683
0.0806451612903226
0.17901234567901242
0.11440677966101696
0.11440677966101696
0.02205882352941177
0.14070351758793978
0.0806451612903226
0.10412573673870333
0.12643678160919536
0.0806451612903226
0.04891922639362913
0.12643678160919536
0.0642954856361149
0.033605812897366034
0.11440677966101696
0.03797468354430379
0.07458143074581432
0.019525801952580198
0.03797468354430379
0.15789473684210528
0.04891922639362913
0.09523809523809527
0.11440677966101696
0.0806451612903226
0.055900621118012424
0.07458143074581432
0.07458143074581432
0.12643678160919536
0.15789473684210528
0.10412573673870333
0.17901234567901242
0.0874785591766724
0.043022035676810066
0.0806451612903226
0.15789473684210528
0.031634446397188064
0.05989583333333335
0.05989583333333335
0.15789473684210528
0.055900621118012424
0.0806451612903226
0.0806451612903226
0.0806451612903226
0.069164265129683
0.04585152838427947
0.05989583333333335
0.15789473684210528
0.05989583333333335
0.15789473684210528
0.04040404040404041
0.04585152838427947
0.043022035676810066
0.09523809523809527
0.033605812897366034
0.0642954856361149
0.0234315948601663
0.04585152838427947
0.09523809523809527
0.04040404040404041
0.019525801952580198
0.05989583333333335
0.013285024154589374
0.07458143074581432
0.0234315948601663
0.019525801952580198
0.05989583333333335
0.04585152838427947
0.0806451612903226
0.05989583333333335
0.03797468354430379
0.052256532066508335
0.205574912891986
0.03797468354430379
0.020758768790264857
0.14070351758793978
0.04585152838427947
0.205574912891986
0.052256532066508335
0.04585152838427947
0.01618122977346279
0.03797468354430379
0.018354860639021076
0.0234315948601663
0.11440677966101696
0.035714285714285726
0.052256532066508335
0.09523809523809527
0.019525801952580198
0.10412573673870333
0.035714285714285726
0.028052805280528056
0.0806451612903226
0.04891922639362913
0.15789473684210528
0.24000000000000005
0.031634446397188064
0.07458143074581432
0.12643678160919536
0.0806451612903226
0.09523809523809527
0.24000000000000005
0.02205882352941177
0.15789473684210528
0.0874785591766724
0.0874785591766724
0.04585152838427947
0.09523809523809527
0.04585152838427947
0.029787234042553193
0.0874785591766724
0.01724137931034483
0.09523809523809527
0.029787234042553193
0.12643678160919536
0.09523809523809527
0.04891922639362913
0.02488335925349923
0.10412573673870333
0.12643678160919536
0.0642954856361149
0.09523809523809527
0.069164265129683
0.02642113690952762
0.03797468354430379
0.10412573673870333
0.020758768790264857
0.020758768790264857
0.07458143074581432
0.055900621118012424
0.0874785591766724
0.04585152838427947
0.069164265129683
0.07458143074581432
0.17901234567901242
0.07458143074581432
0.04891922639362913
0.12643678160919536
0.033605812897366034
0.24000000000000005
0.11440677966101696
0.10412573673870333
0.035714285714285726
0.069164265129683
0.055900621118012424
0.0806451612903226
0.020758768790264857
0.028052805280528056
0.04585152838427947
0.04040404040404041
0.0874785591766724
0.14070351758793978
0.031634446397188064
0.0806451612903226
0.15789473684210528
0.03797468354430379
0.03797468354430379
0.0806451612903226
0.05989583333333335
0.033605812897366034
0.043022035676810066
0.17901234567901242
0.055900621118012424
0.069164265129683
0.09523809523809527
0.02488335925349923
0.043022035676810066
0.04891922639362913
0.05989583333333335
0.07458143074581432
0.055900621118012424
0.10412573673870333
0.15789473684210528
0.07458143074581432
0.04891922639362913
0.09523809523809527
0.15789473684210528
0.11440677966101696
0.10412573673870333
0.069164265129683
0.07458143074581432
0.14070351758793978
0.14070351758793978
0.10412573673870333
0.205574912891986
0.12643678160919536
0.12643678160919536
0.0234315948601663
0.02205882352941177
0.0806451612903226
0.0874785591766724
0.15789473684210528
0.035714285714285726
0.05989583333333335
0.0806451612903226
0.0874785591766724
0.035714285714285726
0.04891922639362913
0.10412573673870333
0.12643678160919536
0.069164265129683
0.07458143074581432
0.07458143074581432
0.07458143074581432
0.04040404040404041
0.043022035676810066
0.11440677966101696
0.07458143074581432
0.029787234042553193
0.052256532066508335
0.11440677966101696
0.07458143074581432
0.11440677966101696
0.055900621118012424
0.12643678160919536
0.052256532066508335
0.029787234042553193
0.033605812897366034
0.055900621118012424
0.052256532066508335
0.14070351758793978
0.043022035676810066
0.052256532066508335
0.0642954856361149
0.035714285714285726
0.069164265129683
0.035714285714285726
0.0642954856361149
0.11440677966101696
0.009977827050997786
0.0806451612903226
0.05989583333333335
0.2863849765258214
0.052256532066508335
0.07458143074581432
0.03797468354430379
0.07458143074581432
0.04585152838427947
0.043022035676810066
0.04585152838427947
0.013285024154589374
0.033605812897366034
0.0642954856361149
0.11440677966101696
0.055900621118012424
0.04585152838427947
0.052256532066508335
0.10412573673870333
0.10412573673870333
0.14070351758793978
0.04585152838427947
0.15789473684210528
0.05989583333333335
0.069164265129683
0.0806451612903226
0.04040404040404041
0.05989583333333335
0.043022035676810066
0.10412573673870333
0.10412573673870333
0.028052805280528056
0.0806451612903226
0.069164265129683
0.04040404040404041
0.24000000000000005
0.11440677966101696
0.14070351758793978
0.04585152838427947
0.0874785591766724
0.12643678160919536
0.15789473684210528
0.17901234567901242
0.2863849765258214
0.14070351758793978
0.09523809523809527
0.029787234042553193
0.0874785591766724
0.09523809523809527
0.24000000000000005
0.02642113690952762
0.055900621118012424
0.0874785591766724
0.07458143074581432
0.033605812897366034
0.0234315948601663
0.10412573673870333
0.10412573673870333
0.09523809523809527
0.14070351758793978
0.09523809523809527
0.0806451612903226
0.0806451612903226
0.028052805280528056
0.04891922639362913
0.04891922639362913
0.0874785591766724
0.07458143074581432
0.043022035676810066
0.02642113690952762
0.043022035676810066
0.12643678160919536
0.2863849765258214
0.043022035676810066
0.02488335925349923
0.12643678160919536
0.01618122977346279
0.0806451612903226
0.15789473684210528
0.03797468354430379
0.052256532066508335
0.11440677966101696
0.043022035676810066
0.205574912891986
0.10412573673870333
0.11440677966101696
0.10412573673870333
0.15789473684210528
0.0806451612903226
0.05989583333333335
0.069164265129683
0.11440677966101696
0.0874785591766724
0.0806451612903226
0.0234315948601663
0.0806451612903226
0.0874785591766724
0.0806451612903226
0.04585152838427947
0.15789473684210528
0.028052805280528056
0.02488335925349923
0.15789473684210528
0.07458143074581432
0.05989583333333335
0.033605812897366034
0.12643678160919536
0.03797468354430379
0.01724137931034483
0.04585152838427947
0.02205882352941177
0.09523809523809527
0.09523809523809527
0.12643678160919536
0.07458143074581432
0.052256532066508335
0.14070351758793978
0.0874785591766724
0.055900621118012424
0.052256532066508335
0.015170670037926678
0.012404016538688717
0.055900621118012424
0.10412573673870333
0.069164265129683
0.055900621118012424
0.15789473684210528
0.055900621118012424
0.0806451612903226
0.04585152838427947
0.055900621118012424
0.033605812897366034
0.14070351758793978
0.0642954856361149
0.12643678160919536
0.24000000000000005
0.10412573673870333
0.0874785591766724
0.12643678160919536
0.018354860639021076
0.069164265129683
0.14070351758793978
0.3522727272727278
0.029787234042553193
0.09523809523809527
0.10412573673870333
0.029787234042553193
0.033605812897366034
0.05989583333333335
0.05989583333333335
0.018354860639021076
0.09523809523809527
0.15789473684210528
0.205574912891986
0.07458143074581432
0.02642113690952762
0.11440677966101696
0.11440677966101696
0.12643678160919536
0.09523809523809527
0.11440677966101696
0.0642954856361149
0.03797468354430379
0.09523809523809527
0.14070351758793978
0.04891922639362913
0.03797468354430379
0.03797468354430379
0.07458143074581432
0.0806451612903226
0.0874785591766724
0.019525801952580198
0.028052805280528056
0.069164265129683
0.020758768790264857
0.15789473684210528
0.04891922639362913
0.052256532066508335
0.020758768790264857
0.0874785591766724
0.0642954856361149
0.2863849765258214
0.12643678160919536
0.0806451612903226
0.07458143074581432
0.10412573673870333
0.0806451612903226
0.14070351758793978
0.17901234567901242
0.04040404040404041
0.055900621118012424
0.10412573673870333
0.01724137931034483
0.11440677966101696
0.035714285714285726
0.11440677966101696
0.043022035676810066
0.3522727272727278
0.10412573673870333
0.11440677966101696
0.05989583333333335
0.05989583333333335
0.04585152838427947
0.0806451612903226
0.14070351758793978
0.033605812897366034
0.069164265129683
0.033605812897366034
0.04585152838427947
0.033605812897366034
0.10412573673870333
0.020758768790264857
0.10412573673870333
0.14070351758793978
0.055900621118012424
0.03797468354430379
0.043022035676810066
0.069164265129683
0.069164265129683
0.09523809523809527
0.04040404040404041
0.0642954856361149
0.02205882352941177
0.12643678160919536
0.0874785591766724
0.3522727272727278
0.12643678160919536
0.14070351758793978
0.10412573673870333
0.10412573673870333
0.015170670037926678
0.055900621118012424
0.031634446397188064
0.07458143074581432
0.14070351758793978
0.069164265129683
0.01724137931034483
0.12643678160919536
0.031634446397188064
0.020758768790264857
0.01618122977346279
0.09523809523809527
0.0806451612903226
0.04585152838427947
0.12643678160919536
0.07458143074581432
0.0874785591766724
0.043022035676810066
0.07458143074581432
0.0642954856361149
0.0642954856361149
0.14070351758793978
0.05989583333333335
0.04585152838427947
0.205574912891986
0.04891922639362913
0.033605812897366034
0.205574912891986
0.069164265129683
0.11440677966101696
0.09523809523809527
0.043022035676810066
0.0806451612903226
0.15789473684210528
0.069164265129683
0.069164265129683
0.035714285714285726
0.17901234567901242
0.17901234567901242
0.11440677966101696
0.05989583333333335
0.09523809523809527
0.01724137931034483
0.029787234042553193
0.029787234042553193
0.029787234042553193
0.02642113690952762
0.11440677966101696
0.14070351758793978
0.028052805280528056
0.0806451612903226
0.029787234042553193
0.04891922639362913
0.029787234042553193
0.0806451612903226
0.0874785591766724
0.035714285714285726
0.055900621118012424
0.015170670037926678
0.069164265129683
0.019525801952580198
0.052256532066508335
0.09523809523809527
0.0234315948601663
0.12643678160919536
0.0642954856361149
0.0806451612903226
0.09523809523809527
0.11440677966101696
0.055900621118012424
0.12643678160919536
0.052256532066508335
0.02642113690952762
0.0874785591766724
0.069164265129683
0.020758768790264857
0.055900621118012424
0.012404016538688717
0.12643678160919536
0.14070351758793978
0.09523809523809527
0.15789473684210528
0.0874785591766724
0.11440677966101696
0.11440677966101696
0.043022035676810066
0.04585152838427947
0.0642954856361149
0.031634446397188064
0.033605812897366034
0.12643678160919536
0.12643678160919536
0.055900621118012424
0.018354860639021076
0.02488335925349923
0.052256532066508335
0.15789473684210528
0.055900621118012424
0.10412573673870333
0.02488335925349923
0.0642954856361149
0.05989583333333335
0.07458143074581432
0.14070351758793978
0.0234315948601663
0.0874785591766724
0.11440677966101696
0.15789473684210528
0.069164265129683
0.0806451612903226
0.019525801952580198
0.12643678160919536
0.17901234567901242
0.0806451612903226
0.055900621118012424
0.05989583333333335
0.04891922639362913
0.010752688172043013
0.0642954856361149
0.15789473684210528
0.14070351758793978
0.069164265129683
0.04585152838427947
0.03797468354430379
0.14070351758793978
0.0806451612903226
0.205574912891986
0.055900621118012424
0.15789473684210528
0.15789473684210528
0.0234315948601663
0.04040404040404041
0.055900621118012424
0.033605812897366034
0.020758768790264857
0.04891922639362913
0.205574912891986
0.205574912891986
0.055900621118012424
0.052256532066508335
0.05989583333333335
0.05989583333333335
0.04891922639362913
0.069164265129683
0.031634446397188064
0.033605812897366034
0.14070351758793978
0.0642954856361149
0.10412573673870333
0.04585152838427947
0.07458143074581432
0.069164265129683
0.01420630018529957
0.0874785591766724
0.07458143074581432
0.0874785591766724
0.04891922639362913
0.0642954856361149
0.11440677966101696
0.04891922639362913
0.04585152838427947
0.02205882352941177
0.020758768790264857
0.04585152838427947
0.033605812897366034
0.15789473684210528
0.035714285714285726
0.055900621118012424
0.17901234567901242
0.09523809523809527
0.04891922639362913
0.020758768790264857
0.11440677966101696
0.035714285714285726
0.02205882352941177
0.04891922639362913
0.09523809523809527
0.033605812897366034
0.043022035676810066
0.03797468354430379
0.0642954856361149
0.052256532066508335
0.10412573673870333
0.035714285714285726
0.028052805280528056
0.020758768790264857
0.11440677966101696
0.24000000000000005
0.3522727272727278
0.0806451612903226
0.10412573673870333
0.14070351758793978
0.0874785591766724
0.0874785591766724
0.04040404040404041
0.01724137931034483
0.019525801952580198
0.055900621118012424
0.02488335925349923
0.24000000000000005
0.033605812897366034
0.02205882352941177
0.03797468354430379
0.031634446397188064
0.11440677966101696
0.043022035676810066
0.029787234042553193
0.09523809523809527
0.0874785591766724
0.035714285714285726
0.04891922639362913
0.01724137931034483
0.12643678160919536
0.028052805280528056
0.0234315948601663
0.052256532066508335
0.15789473684210528
0.07458143074581432
0.07458143074581432
0.03797468354430379
0.05989583333333335
0.04891922639362913
0.04040404040404041
0.14070351758793978
0.052256532066508335
0.12643678160919536
0.12643678160919536
0.02205882352941177
0.031634446397188064
0.15789473684210528
0.11440677966101696
0.069164265129683
0.10412573673870333
0.10412573673870333
0.033605812897366034
0.15789473684210528
0.033605812897366034
0.0874785591766724
0.031634446397188064
0.11440677966101696
0.10412573673870333
0.055900621118012424
0.018354860639021076
0.11440677966101696
0.2863849765258214
0.055900621118012424
0.0874785591766724
0.11440677966101696
0.12643678160919536
0.0874785591766724
0.052256532066508335
0.028052805280528056
0.069164265129683
0.02642113690952762
0.03797468354430379
0.02205882352941177
0.035714285714285726
0.10412573673870333
0.05989583333333335
0.029787234042553193
0.01618122977346279
0.018354860639021076
0.029787234042553193
0.15789473684210528
0.0874785591766724
0.028052805280528056
0.14070351758793978
0.013285024154589374
0.018354860639021076
0.0874785591766724
0.028052805280528056
0.0874785591766724
0.055900621118012424
0.11440677966101696
0.10412573673870333
0.0234315948601663
0.03797468354430379
0.04891922639362913
0.05989583333333335
0.02642113690952762
0.04585152838427947
0.028052805280528056
0.0806451612903226
0.12643678160919536
0.0234315948601663
0.09523809523809527
0.069164265129683
0.03797468354430379
0.15789473684210528
0.04585152838427947
0.052256532066508335
0.055900621118012424
0.02642113690952762
0.0642954856361149
0.0234315948601663
0.0874785591766724
0.09523809523809527
0.04585152838427947
0.028052805280528056
0.055900621118012424
0.033605812897366034
0.0874785591766724
0.0874785591766724
0.10412573673870333
0.09523809523809527
0.09523809523809527
0.11440677966101696
0.055900621118012424
0.029787234042553193
0.028052805280528056
0.0874785591766724
0.24000000000000005
0.02205882352941177
0.04040404040404041
0.205574912891986
0.07458143074581432
0.02205882352941177
0.14070351758793978
0.11440677966101696
0.0874785591766724
0.04040404040404041
0.04891922639362913
0.055900621118012424
0.0874785591766724
0.031634446397188064
0.07458143074581432
0.04891922639362913
0.055900621118012424
0.052256532066508335
0.028052805280528056
0.07458143074581432
0.069164265129683
0.04040404040404041
0.013285024154589374
0.02488335925349923
0.15789473684210528
0.05989583333333335
0.0642954856361149
0.069164265129683
0.04040404040404041
0.028052805280528056
0.069164265129683
0.04040404040404041
0.11440677966101696
0.035714285714285726
0.05989583333333335
0.029787234042553193
0.0874785591766724
0.052256532066508335
0.01618122977346279
0.035714285714285726
0.031634446397188064
0.05989583333333335
0.11440677966101696
0.04040404040404041
0.031634446397188064
0.0874785591766724
0.055900621118012424
0.02642113690952762
0.0874785591766724
0.10412573673870333
0.09523809523809527
0.05989583333333335
0.12643678160919536
0.035714285714285726
0.010752688172043013
0.031634446397188064
0.0874785591766724
0.04891922639362913
0.14070351758793978
0.15789473684210528
0.14070351758793978
0.11440677966101696
0.01618122977346279
0.14070351758793978
0.028052805280528056
0.015170670037926678
0.035714285714285726
0.0874785591766724
0.11440677966101696
0.09523809523809527
0.07458143074581432
0.031634446397188064
0.14070351758793978
0.15789473684210528
0.05989583333333335
0.17901234567901242
0.052256532066508335
0.0234315948601663
0.01724137931034483
0.02488335925349923
0.03797468354430379
0.019525801952580198
0.029787234042553193
0.013285024154589374
0.04040404040404041
0.069164265129683
0.10412573673870333
0.013285024154589374
0.3522727272727278
0.07458143074581432
0.02488335925349923
0.04585152838427947
0.10412573673870333
0.09523809523809527
0.05989583333333335
0.10412573673870333
0.043022035676810066
0.02488335925349923
0.04585152838427947
0.09523809523809527
0.019525801952580198
0.07458143074581432
0.028052805280528056
0.05989583333333335
0.03797468354430379
0.10412573673870333
0.03797468354430379
0.029787234042553193
0.04040404040404041
0.09523809523809527
0.07458143074581432
0.0642954856361149
0.031634446397188064
0.0874785591766724
0.15789473684210528
0.0806451612903226
0.0806451612903226
0.033605812897366034
0.12643678160919536
0.052256532066508335
0.11440677966101696
0.04585152838427947
0.05989583333333335
0.14070351758793978
0.15789473684210528
0.035714285714285726
0.03797468354430379
0.01724137931034483
0.029787234042553193
0.14070351758793978
0.09523809523809527
0.01724137931034483
0.035714285714285726
0.0874785591766724
0.04891922639362913
0.031634446397188064
0.09523809523809527
0.035714285714285726
0.0642954856361149
0.035714285714285726
0.04585152838427947
0.12643678160919536
0.052256532066508335
0.45323741007194257
0.04891922639362913
0.04585152838427947
0.031634446397188064
0.033605812897366034
0.028052805280528056
0.033605812897366034
0.12643678160919536
0.033605812897366034
0.043022035676810066
0.04585152838427947
0.043022035676810066
0.02488335925349923
0.033605812897366034
0.052256532066508335
0.04585152838427947
0.0874785591766724
0.018354860639021076
0.0874785591766724
0.11440677966101696
0.205574912891986
0.055900621118012424
0.01420630018529957
0.01420630018529957
0.055900621118012424
0.0642954856361149
0.0234315948601663
0.0874785591766724
0.028052805280528056
0.07458143074581432
0.04040404040404041
0.031634446397188064
0.028052805280528056
0.0642954856361149
0.11440677966101696
0.033605812897366034
0.10412573673870333
0.033605812897366034
0.07458143074581432
0.043022035676810066
0.055900621118012424
0.019525801952580198
0.01420630018529957
0.03797468354430379
0.15789473684210528
0.04891922639362913
0.0874785591766724
0.04040404040404041
0.055900621118012424
0.05989583333333335
0.055900621118012424
0.02205882352941177
0.0642954856361149
0.01724137931034483
0.05989583333333335
0.043022035676810066
0.07458143074581432
0.14070351758793978
0.029787234042553193
0.043022035676810066
0.069164265129683
0.033605812897366034
0.12643678160919536
0.07458143074581432
0.013285024154589374
0.031634446397188064
0.043022035676810066
0.028052805280528056
0.04585152838427947
0.0874785591766724
0.02642113690952762
0.052256532066508335
0.07458143074581432
0.031634446397188064
0.04891922639362913
0.020758768790264857
0.010752688172043013
0.05989583333333335
0.05989583333333335
0.02488335925349923
0.0874785591766724
0.010752688172043013
0.11440677966101696
0.0806451612903226
0.019525801952580198
0.10412573673870333
0.09523809523809527
0.055900621118012424
0.07458143074581432
0.0642954856361149
0.12643678160919536
0.033605812897366034
0.10412573673870333
0.0874785591766724
0.0642954856361149
0.17901234567901242
0.17901234567901242
0.043022035676810066
0.04891922639362913
0.013285024154589374
0.033605812897366034
0.17901234567901242
0.15789473684210528
0.05989583333333335
0.0234315948601663
0.15789473684210528
0.01420630018529957
0.04891922639362913
0.0806451612903226
0.10412573673870333
0.02642113690952762
0.04040404040404041
0.05989583333333335
0.14070351758793978
0.029787234042553193
0.12643678160919536
0.09523809523809527
0.031634446397188064
0.03797468354430379
0.019525801952580198
0.043022035676810066
0.14070351758793978
0.05989583333333335
0.029787234042553193
0.07458143074581432
0.01420630018529957
0.0642954856361149
0.069164265129683
0.10412573673870333
0.015170670037926678
0.04040404040404041
0.031634446397188064
0.07458143074581432
0.07458143074581432
0.10412573673870333
0.055900621118012424
0.04040404040404041
0.043022035676810066
0.028052805280528056
0.043022035676810066
0.04585152838427947
0.0874785591766724
0.12643678160919536
0.17901234567901242
0.0642954856361149
0.04891922639362913
0.45323741007194257
0.055900621118012424
0.069164265129683
0.04891922639362913
0.0874785591766724
0.02642113690952762
0.010752688172043013
0.033605812897366034
0.07458143074581432
0.14070351758793978
0.018354860639021076
0.055900621118012424
0.015170670037926678
0.069164265129683
0.05989583333333335
0.05989583333333335
0.033605812897366034
0.0234315948601663
0.10412573673870333
0.069164265129683
0.019525801952580198
0.033605812897366034
0.028052805280528056
0.029787234042553193
0.0874785591766724
0.031634446397188064
0.055900621118012424
0.031634446397188064
0.10412573673870333
0.0874785591766724
0.020758768790264857
0.0874785591766724
0.035714285714285726
0.11440677966101696
0.055900621118012424
0.033605812897366034
0.035714285714285726
0.05989583333333335
0.055900621118012424
0.04891922639362913
0.031634446397188064
0.0234315948601663
0.07458143074581432
0.0642954856361149
0.03797468354430379
0.11440677966101696
0.205574912891986
0.0874785591766724
0.069164265129683
0.04040404040404041
0.09523809523809527
0.0874785591766724
0.12643678160919536
0.10412573673870333
0.028052805280528056
0.0642954856361149
0.14070351758793978
0.12643678160919536
0.12643678160919536
0.012404016538688717
0.09523809523809527
0.12643678160919536
0.0874785591766724
0.0806451612903226
0.028052805280528056
0.205574912891986
0.12643678160919536
0.07458143074581432
0.0806451612903226
0.0806451612903226
0.15789473684210528
0.07458143074581432
0.14070351758793978
0.028052805280528056
0.07458143074581432
0.033605812897366034
0.0642954856361149
0.02488335925349923
0.09523809523809527
0.0642954856361149
0.03797468354430379
0.028052805280528056
0.04040404040404041
0.01618122977346279
0.17901234567901242
0.15789473684210528
0.05989583333333335
0.05989583333333335
0.04040404040404041
0.069164265129683
0.02488335925349923
0.055900621118012424
0.09523809523809527
0.019525801952580198
0.031634446397188064
0.12643678160919536
0.0642954856361149
0.069164265129683
0.020758768790264857
0.11440677966101696
0.05989583333333335
0.07458143074581432
0.02642113690952762
0.14070351758793978
0.14070351758793978
0.069164265129683
0.029787234042553193
0.09523809523809527
0.15789473684210528
0.07458143074581432
0.033605812897366034
0.04585152838427947
0.01618122977346279
0.07458143074581432
0.205574912891986
0.0874785591766724
0.12643678160919536
0.02642113690952762
0.043022035676810066
0.033605812897366034
0.020758768790264857
0.14070351758793978
0.0806451612903226
0.15789473684210528
0.02205882352941177
0.02488335925349923
0.04891922639362913
0.02642113690952762
0.02205882352941177
0.015170670037926678
0.11440677966101696
0.10412573673870333
0.14070351758793978
0.04585152838427947
0.035714285714285726
0.11440677966101696
0.11440677966101696
0.09523809523809527
0.0874785591766724
0.05989583333333335
0.02642113690952762
0.09523809523809527
0.11440677966101696
0.069164265129683
0.09523809523809527
0.069164265129683
0.04891922639362913
0.03797468354430379
0.11440677966101696
0.10412573673870333
0.05989583333333335
0.0642954856361149
0.0874785591766724
0.03797468354430379
0.15789473684210528
0.01618122977346279
0.02642113690952762
0.069164265129683
0.031634446397188064
0.052256532066508335
0.05989583333333335
0.02642113690952762
0.052256532066508335
0.019525801952580198
0.0874785591766724
0.03797468354430379
0.018354860639021076
0.055900621118012424
0.04040404040404041
0.0874785591766724
0.02205882352941177
0.04040404040404041
0.0234315948601663
0.029787234042553193
0.09523809523809527
0.011560693641618498
0.10412573673870333
0.0234315948601663
0.055900621118012424
0.033605812897366034
0.028052805280528056
0.028052805280528056
0.01618122977346279
0.043022035676810066
0.0874785591766724
0.3522727272727278
0.04040404040404041
0.11440677966101696
0.0806451612903226
0.0642954856361149
0.052256532066508335
0.07458143074581432
0.052256532066508335
0.0806451612903226
0.12643678160919536
0.035714285714285726
0.043022035676810066
0.019525801952580198
0.01618122977346279
0.14070351758793978
0.0874785591766724
0.10412573673870333
0.15789473684210528
0.205574912891986
0.05989583333333335
0.029787234042553193
0.055900621118012424
0.04585152838427947
0.15789473684210528
0.069164265129683
0.0642954856361149
0.14070351758793978
0.04040404040404041
0.03797468354430379
0.0234315948601663
0.028052805280528056
0.10412573673870333
0.029787234042553193
0.02642113690952762
0.031634446397188064
0.15789473684210528
0.02488335925349923
0.02642113690952762
0.15789473684210528
0.45323741007194257
0.10412573673870333
0.035714285714285726
0.0806451612903226
0.01420630018529957
0.028052805280528056
0.24000000000000005
0.04040404040404041
0.009977827050997786
0.055900621118012424
0.028052805280528056
0.12643678160919536
0.09523809523809527
0.10412573673870333
0.028052805280528056
0.031634446397188064
0.019525801952580198
0.020758768790264857
0.031634446397188064
0.055900621118012424
0.029787234042553193
0.03797468354430379
0.02642113690952762
0.0874785591766724
0.04891922639362913
0.03797468354430379
0.02642113690952762
0.12643678160919536
0.03797468354430379
0.069164265129683
0.04040404040404041
0.03797468354430379
0.07458143074581432
0.05989583333333335
0.033605812897366034
0.01618122977346279
0.0642954856361149
0.04891922639362913
0.15789473684210528
0.04891922639362913
0.05989583333333335
0.033605812897366034
0.04585152838427947
0.0874785591766724
0.12643678160919536
0.04891922639362913