AL357507.1
TNC
PKHD1L1
HBB
LRRTM4
SAA1
ZNF804B
CSMD1
ADGRL3
SERPINE1
CXCL14
AC024230.1
PTX3
RYR2
GLDN
SELE
HBA2
CCL21
LINC01554
XKR4
NRG3
LINC02388
POSTN
KCTD8
HS6ST3
NRXN1
ACKR1
RELN
APOD
LINC00968
LINC02055
COL1A1
F13A1
DGKG
CNTN4
HS3ST2
RHCG
TRDN
MRC1
SAA2
IGFBP6
NRCAM
PCDH11X
FAM189A2
AC105411.1
GPC5
CYP3A5
LBP
PLAT
LINC02147
LINC01099
RBP7
LINC01021
PCDH11Y
KCNAB1
FBLN1
FHL5
ICAM1
AC087565.3
KLHL4
GPM6A
AL035401.1
NRG1
NKAIN2
ESRRG
KCNB2
COL25A1
PIEZO2
FMN1
PLA2G2A
KYNU
IL7R
SLAMF1
TGM3
TPO
BMP6
PLCXD3
ADARB2
COL1A2
AC104574.2
IFNG-AS1
SLC16A10
DNASE1L3
GRID2
LUM
KCNIP4
PTPRC
AC011511.2
DCN
SLC38A11
AC011287.1
ABCB11
KIT
LINC02432
PTCHD4
INPP4B
MYOCD
CYP1B1
S100A4
TLL1
FSTL4
LY86-AS1
SCN7A
LINC02232
ITLN1
LINC01446
P2RY12
HDC
CHRM3
MMRN1
PCDH19
AC026167.1
KHDRBS2
TENM2
CDH12
CDH19
DTHD1
FGF7
CCL2
RGS6
PCLO
CXCL8
HBA1
THEMIS
SPATA9
SKAP1
PCK1
ADAMTS6
PCDH17
IL1R2
RHOJ
AL356277.3
RCAN2
VCAM1
TOX
NOV
FRMPD4
KLRC1
ITGA4
FAM155A
RGS5
SGO1-AS1
RAB3C
PDZRN4
FLT3
SYT1
AC012593.1
CALCA
RHOH
CDH20
POF1B
CD38
AREG
SGCZ
ALCAM
GUCY1A2
AP000561.1
NCKAP5
COL21A1
LINC01098
LILRB2
NR4A3
CD163
HAS1
AC106729.1
CCL4
SLPI
AC092691.1
AP003181.1
CACNA1C
CD96
AC009313.1
BIRC3
CD247
GPAT3
C5AR2
GRIA4
LINC02085
LINC02296
SLC11A1
AC012349.1
COL3A1
LINC00540
LINC01695
TNFAIP3
AQP1
MYH11
CDH6
ABCB5
PROX1
IL1RAPL1
ADRA1A
MMP19
LINC01934
ITGA8
KCNQ5
BMP5
CFD
ULK4
LEF1
AC021733.1
SCGN
RYR3
CLVS1
PPBP
ITGAX
ADAMTS4
NDUFA4L2
TMX4
ITK
ZFPM2-AS1
LILRA5
IL18R1
IL6
TNFAIP6
C5orf17
AC099673.1
WDFY4
CD86
LINC00639
ATP1B3
PGM5
PTCHD1-AS
IL1RL1
AC018742.1
AC079298.3
LINC00871
MGAT4C
LINC00670
CYBB
CCL5
CA4
AC013652.1
MYBL1
DIAPH3
ADAMTS3
PRKCB
ELOVL7
AC020637.1
CTNND2
C8orf34
NEBL
STC1
AP002989.1
THBD
CTSC
LINC01725
RERG
KCNMB2-AS1
GNG11
ROBO2
SCHLAP1
PI15
STEAP4
CD52
C2CD4B
SAA2-SAA4
CAVIN2
ENKUR
LINC00276
COBL
CTSS
PIP5K1B
CD300LG
AC008591.1
LINC01262
GZMB
PCSK6
MYOC
EYA4
MGP
ENTPD1
ISM1
AC112493.1
IGSF21
AC114689.3
E2F7
CLNK
ZNF804A
ADCYAP1
CXCL2
CDADC1
LRP2
AOAH
KCNMA1
CLDN5
AC243829.4
IGF2
CA8
VGLL3
HSD52
AC087857.1
STAB2
GNLY
SLC7A2
CXCL1
LYN
LINC01505
TESPA1
LEP
ABCB1
NRXN3
LSAMP
DTL
CPE
TSPAN5
LINC01568
AC009975.1
UPP1
LINC02006
ADGRE2
S100A6
PROX1-AS1
ADAMTS18
NLRP3
ELN
HAS2
NTRK3
ZNF331
AL392023.2
OCA2
LYVE1
LINGO2
PRLR
AC104809.2
ANKRD30A
AL121985.1
LUZP2
EDN1
APOE
P2RY14
ACTA2
CADM2
VCAN
PIK3C2G
BCL11B
DGKI
AC144450.1
MAOB
THBS1
SPAG17
LINC01697
CYTIP
HPGD
KCNAB2
MCTP2
AC008840.1
HTR4
EDIL3
FMO3
SLCO2B1
AC090415.2
IKZF1
COL14A1
CHODL
SV2C
AC097478.1
TIMP1
LINC01036
ADAM28
AC099792.1
LRRN3
AC069277.1
SFRP4
SPN
VAV3-AS1
HPSE2
LINC02227
MARCH1
AC124854.1
HTR7
GPRC5A
LINC01088
AC002480.1
BLK
FPR3
CLSTN2
TXK
RAPGEF5
BICDL1
NCAM2
AC010737.1
NETO1
CXCL3
C11orf96
AC010609.1
PTPRT
ZNF385B
AC090124.1
AC097460.1
FADS1
PLD5
AC016205.1
KC6
PTGS2
STEAP2-AS1
C7
AC018616.1
BCL11A
VEGFC
AP005230.1
LINC02511
MAP2
SV2B
SYNPO2
PF4
AC100849.1
FNDC1
RPS18
IQGAP2
MDGA2
C3
EPHA3
TEX41
AC134511.1
LINC00278
LINC02456
TMSB4X
CARMN
AC112206.2
ANGPTL4
LINC01266
MEDAG
MTRNR2L1
AC019197.1
SCML4
AC113383.1
AL096799.1
ALK
S100Z
GALNT17
CARD11
F5
BMX
SLC16A12
PRG4
FABP4
LINC01170
ADAMTS9
LOXHD1
LINC01748
SLCO2A1
B3GNT5
SLC35F1
ANO3
AL033504.1
WISP2
SLC14A2
RGS18
GEM
CCDC3
DEC1
PCDH15
LINC02015
SLCO6A1
SGCG
SAMD12-AS1
AC113137.1
FAM19A1
CP
PLA2G7
KCNIP1
IRF4
NLGN4X
SOX2-OT
AC024901.1
AL807742.1
DGKB
AC087521.3
AL162414.1
DCDC2C
AC003991.1
ID4
ARHGAP20
AC116345.1
PKP2
LINC00598
CPA3
DUSP4
ERBB4
CLU
SFRP2
IDH1
AL356479.1
PNLIPRP3
CLDN1
AFF3
CCBE1
TFF3
LST1
LYPD6
THSD4
TBXAS1
AIM2
WFDC1
ABTB2
ADGRB3
PAPSS2
RNF103-CHMP3
RIPOR2
CLEC1B
C4orf22
DACH1
NKAIN3
GJA5
CNR1
G0S2
RNF152
PAG1
EPHA5
SPINK5
COL8A1
RORB
ALDH1L1
SOX17
IL2RA
CCL18
NALCN
TTC29
AC090833.1
SLC1A3
LINC00840
LINC01484
AC005062.1
ALDH1A2
CD69
LINC00853
AC078788.1
SLC14A2-AS1
BTBD11
LINC00636
CCDC178
TM4SF18
LINC00348
RGCC
LINC00511
AC138627.1
MRVI1
CSF3
AC069114.1
TNMD
FRAS1
FCGR3A
LINC00470
ADAMTSL1
AC002454.1
CD300E
PHLDB2
AC010967.1
ABCD2
CCDC80
LINC00989
ARHGAP15
KCNQ3
AL391117.1
IER3
LINC01950
RASGRP3
FAM153B
PEX5L
HES1
PI16
DOCK10
PRF1
RTN1
PPA1
LINC00923
ALDH1A3
PAPPA2
PDE1C
AC073365.1
RGS7BP
CAMK4
ZNF365
LINC00861
SAMSN1
LGALS1
LINC02211
DIO2
PSMA1
TSPAN2
AC113386.1
BMPR1B
SERPINA1
EPHA5-AS1
AC068305.3
TNFSF14
TNFRSF10C
STK32B
RAPGEF4
CHST11
AC084871.1
NRGN
MROH9
LINC01440
DCC
LRRC1
LINC01239
TUBB1
AC093865.1
NKG7
UPP2
PDE8B
CA2
COL23A1
AC027013.1
LDB3
C2orf40
AC025470.2
CD74
KCNIP2-AS1
AC104041.1
PGM1
AL133480.1
AC099499.1
LPL
C10orf126
RBM20
ACVR1C
AC090568.2
PDE1A
HLA-A
GFPT2
GRM7
KCTD16
HSPB8
GNAI1
FN1
TBX1
CPXM2
AC121154.1
BTNL9
RGS16
TRHDE
MGC4859
TUBA4A
RNF144B
TRPM3
GADD45G
ANOS1
TP63
AC090531.1
KCNJ16
ID3
UBE2QL1
BST2
ADAMTS12
AGBL4
DIO1
CADPS
RERGL
LINC01301
IGFBP5
CALCRL
CIITA
NTM
LINC02008
RDH10-AS1
FYB1
ENAH
SAMD3
GPR39
AC010197.1
KCNJ3
TMEM233
PTH2R
LINC01876
TMEM178B
PTGER3
LINC02355
ST6GALNAC5
PLA2G5
RBPJ
NOVA1-AS1
RASSF6
AL138733.1
APOLD1
FST
NECAB1
TYROBP
HSPB7
KCNMB4
AC092131.1
PDGFD
FBXO32
CPNE4
MS4A6A
AC009478.1
AC073529.1
FPR2
EPHA7
LNX1
MS4A4E
NPFFR2
IL1B
AC073050.1
CACNB2
PTPRR
THY1
HLA-DRB1
AKAP6
RPL32
F8
COLEC11
JAKMIP2
GLT1D1
TENM4
FGF10
SLA
LINC02552
AJ006995.1
ESR1
IGFBP3
MSR1
AC073071.1
CES4A
C14orf39
ADIPOQ
TMEM105
ZNF385D
EPHA6
DKK2
NNAT
IGF1
PLA1A
AC138123.2
AL442647.1
AC004160.1
F3
NOSTRIN
STAT4
PDE7B
AC011247.1
FBN2
MYLIP
LINC00504
ACSL4
AL157911.1
AL356108.1
GRIP1
PTGIS
TFCP2L1
AC109466.1
AC008050.1
ITM2A
LRFN5
PPP1R3C
LINC02335
SGIP1
SLC26A7
GPAM
AC091939.1
VLDLR-AS1
AC022387.1
ID1
TRHDE-AS1
ITGBL1
AP1S3
CTSG
AC012501.1
PCDH7
ADIPOQ-AS1
LINC01010
RCSD1
GRK3
CHI3L2
DLGAP1
DOCK2
CTNNA3
HS3ST3A1
MIR325HG
PARM1
ST8SIA6
NTF3
CASQ2
CDH8
LGI1
FLT1
AC002066.1
AC090993.1
LGR4
AC087280.2
ST18
NPY1R
DNAH6
SNTG2
ZNF19
SUSD4
AL157396.1
LRRIQ1
GPM6B
AC111152.2
SORCS1
CYYR1
ARL15
LINC01990
CD83
SEMA5A
RNF122
MAP7
ZNF366
AKR1C2
ZFX
LINC01644
HSPA1A
LINC01192
FAP
TGFB2
AL110292.1
MYEOV
CECR2
PCDH9-AS2
LRP1B
LINC01708
ACSS3
SNCA
MAOA
RPL8
AF130359.1
AL078590.2
AC007529.2
MARCH3
LINC02237
CCDC172
GPT2
VAV3
NPSR1-AS1
LINC01515
AC109779.1
ATP1A2
AC063979.2
MARC1
GRM5
MAMLD1
GRIN2A
WDPCP
GRB14
SLC7A8
PKNOX2
KLB
CNTN1
CLEC1A
EREG
IGSF11
NEXMIF
STYK1
AC018618.1
POT1-AS1
AC138305.1
TENM3
AL357793.1
AVPR1A
MKI67
LINC01481
CTH
BRINP3
AC098679.1
DACH2
GCNT2
TET1
AC006387.1
SLC19A3
GPD1
AC107419.1
RDH5
LRRIQ3
GPIHBP1
AC004917.1
AP005203.1
CFAP54
AC010997.3
MT2A
AL160400.1
NCAM1
ENPP2
ZNF831
LVRN
HS3ST3B1
MCF2L2
AK4
LINC02391
WWC1
NTNG1
ADGRD1
IFI27
AL355390.2
AL356441.1
LDHC
UGP2
AP000311.1
AC099560.1
AC245041.2
AC091946.1
TRABD2B
LRRC4C
KLHL13
VCAN-AS1
NHSL1
PCBP3
COL11A1
MS4A7
SERTM1
TMEM108
SYCP1
SGPP2
MYO3A
AL162591.1
LINC00922
HSD17B7
PTPRZ1
ARG2
UTS2B
CRISPLD2
LINC01158
AP003049.2
RPLP1
FGF14
WNT2
AC005699.1
CLEC7A
AL589740.1
SEMA3A
RPL34
FSHR
LINC01933
AQP7
NALCN-AS1
PFKFB1
AL034397.3
FLI1
MOCOS
HMOX1
UNC79
CLDN11
ASPM
TAGLN
PRPS2
KMO
MLIP
OLFM3
ANO2
SYTL3
MLKL
NFATC2
COL6A6
BMP2
ADGRG6
APOB
RPL29
AC104596.1
AC084816.1
AFF2
COL24A1
HIST1H2AC
GYG2
PRKG2
GRK5
GLYAT
RPL18
TNFRSF21
AC100803.3
BCL2A1
EHHADH
MDFIC
AC124290.1
LINC02360
AC022498.1
AC098864.1
AC092920.1
FTL
PIK3R5
TPRG1
AC139720.1
CIDEC
DISC1FP1
AL158198.1
LBH
ANGPT1
HEYL
UPK3B
PLA2G16
PDZK1IP1
RAMP3
ST3GAL6
GCLM
MT-ND2
NR2F1
MAPK4
LINC00976
DCX
PRKAR2B
CIDEA
CDH13
HCK
FAM110C
CCDC190
PHACTR3
SPC25
MLLT3
CD248
FMO2
AC007091.1
MT1E
AL445250.1
TWIST2
FAM227B
VDR
NR5A2
TRIM9
PCDH9
ANXA1
AC002546.2
LINC01197
PITPNM3
AC073316.3
LINC01122
LINC00578
LINC00534
HK2
PLVAP
DIRC3
PPP2R2B
CYP7B1
HNF4G
RNF150
KCNU1
SPP1
MCF2L
BANK1
NWD2
FAM69A
FAU
CMTM8
CLEC4C
RPL13
SLC22A25
IFI44L
PCDH10
KCNB1
RPS14
AL662797.1
AP003400.1
CX3CL1
ENPEP
NRIP1
HLA-DQA1
MMP16
KCND3
WIPF3
GRIK2
FGF13
LINC01799
ARPP21
AC107021.1
RANBP3L
AC007422.2
OST4
AC092650.1
AC128707.1
C6
VEPH1
SPON1
SULT1C4
AL022068.1
ELAVL4
FAM189A1
SLC25A21
KBTBD12
COLEC12
SLC4A4
MEG8
SCG3
PECR
MT-ATP8
RPS19
PAK3
OPCML
AC092422.1
LINC01572
CCSER1
TGM2
RTN3
RAB27B
LINC01821
GRIA2
FAM107B
LIF
AC004554.2
LINC02240
LINC02029
RBM47
AP002026.1
ABCA1
ARHGEF26-AS1
ENPP1
LINC01194
APCDD1
KRT18
LINC00977
AC062004.1
TSGA10
AC068051.1
CXXC4-AS1
PACRG
CLEC12A
LINC01500
CHST15
C15orf48
PTPRQ
KLHL32
VSIG1
MMP23B
XIST
MPIG6B
CD7
MEG3
MPEG1
SAMD5
AC005358.1
DNAJC6
RGS17
ANXA8
GPR137C
MT1M
AC008780.1
RPS3
AL157871.4
SYNJ2
TMEM232
LMOD1
VWC2
MIR193BHG
PAX3
IL12RB2
PLIN4
FCER1G
C18orf63
LHX6
PLCB4
CALN1
AL031429.1
BEND2
TMTC2
ARHGEF6
AC087482.1
SEMA6D
KCTD12
SPAG16
RUNX3
LINC01340
SEMA3D
AC024257.1
AL031599.1
AC079117.1
ALDH1A1
LINC02398
LINC01411
LCP1
ADAMTS15
SCN3A
L2HGDH
LINC01942
SPG20-AS1
BCL2
AL356270.1
MAST1
AC097487.1
LINC01924
SLC22A3
LINC02540
OSCAR
ITGB8
AJ009632.2
TWIST1
A2M
CFB
SMAP2
CCL4L2
LINC01949
HHIP
C8orf37-AS1
LINC00907
LINC01846
LINC02220
SYNDIG1
THSD7B
PARP8
SLC2A5
ADAM23
CD163L1
KNL1
CPAMD8
AC005037.1
SEMA3C
AC005165.1
TNFAIP8
IRF8
PTPN3
DLGAP2
TBL1Y
AC091976.1
SLC1A1
CADM3-AS1
SCN9A
C1QTNF7
EMP3
FERMT3
GNAT3
AC093523.1
AC093459.1
GRIN2B
C19orf12
MAPK10
AIF1
FAM160A1
TACR1
DCHS2
CRHBP
CTSW
DANT2
PLOD2
SAMMSON
MYO16
DPH6-AS1
RND1
AL590867.1
LINC01456
AC073612.1
PAH
AGL
EFNB2
AC007001.1
MIR222HG
AC104078.2
AL355304.1
ACTG2
AC116337.3
AC243829.2
AADACL2-AS1
GABRB2
EYA2
CYSLTR2
LINC02477
COL12A1
RGS10
PKHD1
MCM10
C1R
RPS6
CCDC170
FAM13A
RPS4X
AC117386.2
DOK6
SMIM25
SYNPR-AS1
NYAP2
ZBED3-AS1
SLC24A4
SLC1A6
AC139722.1
KIF18B
AKR1C3
EYA1
LINC01091
TFRC
COMP
ZNF608
GUCY1A3
KCND2
AL450332.1
TEX26-AS1
PRR16
FAM3D-AS1
VPS37D
TMEM131L
SLC9C1
PKIB
EGLN3
AC020558.1
VSIG4
PTHLH
FAM126B
SLC2A3
FAM129A
KIF14
LINC02550
FP700125.1
PLTP
TAF4B
PC
LINC01605
DNAJC5B
SORBS2
LMCD1
SLC41A1
CNTN6
GJA4
FGF12
AL117190.2
MIR100HG
AL139260.1
ACTC1
CCL23
MS4A8
MALRD1
AC105001.1
CTIF
GRM1
DAPK2
CSDC2
AL449403.2
KLHL31
AC098617.1
EMB
TTC39A-AS1
EBF2
GPC6
ANKFN1
CASC2
AP001636.3
CALB2
DSCAML1
AL662899.2
AC008555.1
AL133247.1
BTG4
CAPN13
FAM19A2
HOOK2
ENOX1
SHISA6
TNIK
SCN2A
FLVCR2
GK
KCNJ15
LINC02328
LINC01013
VEGFA
HNMT
NEDD4L
CKB
SPRY4-AS1
AC078955.1
AL390964.1
AC027288.3
PALM2-AKAP2
TMSB10
AC133961.1
CSF2RB
PRAG1
TTC16
AP001596.1
TREM1
SVEP1
TMEFF2
NOS1AP
SH3BGRL3
AK5
GCH1
LIPE
CLEC14A
AC068992.1
CPVL
LY86
COL4A4
ANGPTL1
SNCAIP
ITSN1
PGM3
SLAMF6
DOC2B
ELMOD3
AC007656.1
ADAMTS8
LINC01828
MIR181A1HG
KLRF1
EPB41L4B
KIAA0040
SOX18
CLMP
ALKAL2
GLRX
PPM1L
OR9Q1
SLIT2
GLCCI1
LURAP1L
AP001605.1
TSPAN1
ARNTL2
MEOX2
VWF
JRKL-AS1
AC092546.1
LINC02346
ART3
ZRANB2-AS2
AC096576.2
LPAR3
AC016907.2
TMEM164
ADCY2
ADCY5
RFLNA
AC140912.1
SUCLG2-AS1
AC106798.1
IL1R1
AC008056.1
PHLPP1
UMODL1-AS1
DIRC2
AL358394.3
ANKRD33B
RPL35A
LRRTM3
AC078923.1
RUNDC3B
AC098829.1
CCDC141
CAV2
AC108062.1
GFRA1
AC069023.1
KCNK2
PDE10A
CD3D
AC021546.1
AC026790.1
RCL1
LINC00924
ACRBP
PTCRA
CAT
AC009975.2
AC108866.1
LINC00473
COTL1
POU6F2
HMGCLL1
AC004053.1
AL359710.1
BIN2
SFRP1
PZP
AC092167.1
SMOC2
AC010127.1
KIRREL3
AC078845.1
CRYM
PTPN22
LAPTM5
STXBP6
HRASLS5
GPX1
CRLS1
AGMO
SLC8A1
MMP2
ACE2
PITPNC1
LRRC3B
KLRB1
PDPN
PDE3B
LTBP1
CREB3L2
AC007319.1
AC007610.1
MSLN
AC063944.1
ANXA3
AC008074.3
AL009178.2
AL021368.3
CHRNA9
ETV3L
DPP4
PLIN5
STK33
TMEM72-AS1
AC037486.1
RDH10
SOCS2
LINC00559
LEPR
PLEKHA7
MMD
S100A10
KLHL29
LURAP1L-AS1
FGF1
ANK3
AC105020.2
MLXIPL
FAAH2
AC092944.1
AL359644.1
RPL19
SNAP25
KRT7
KCNN3
MUM1L1
AC034195.1
ADAM12
COX4I2
AL138828.1
AC004862.1
RPS11
AC022075.1
FGD2
INSC
CRAT37
LINC01871
TIPARP
RPL36
HLA-B
CLIC5
MERTK
TFEC
GAS1
SLC8A1-AS1
FAM13C
C10orf107
CFAP69
SUSD5
LINC02307
DNAH11
WFDC21P
ZDHHC14
AC007364.1
GALR1
HSPB1
TTN
AC022816.1
FAM159B
HUNK
H2AFY2
AC099805.1
ACO1
PCOLCE2
NEURL2
UFL1-AS1
RAI14
APBA2
LINC00607
AL137024.1
LINC01478
IGHM
AC006449.1
GMNN
P2RY1
SDK1
TFDP2
DEPDC1B
NR6A1
FCN1
PDLIM3
OVCH1-AS1
PDE4B
COL6A2
PRAM1
CRYAB
SYK
GRHL1
ARSJ
AC079380.1
LINC01965
IQCM
VNN1
STPG2
CXorf36
AP005328.1
AC078881.1
HMCN1
C1orf186
SDK2
ACOX1
AC092802.1
AC124657.1
RPS8
MACC1
LINC02320
AURKB
LINC02067
AC109588.1
LINC01608
PARD6A
LINC00886
RNLS
AC037198.2
C2CD2
NEURL1B
MME
RRAS2
MSC-AS1
AF127577.2
AL358335.2
HLA-DRA
AC008728.1
AC113404.1
AL357060.1
KRT19
CSF3R
ADAMTS16
CLECL1
ICOS
BDNF-AS
BNIP3L
AL049629.1
PTPN5
ARHGAP11B
KIAA1958
CXCR4
AC090572.3
NOS3
HLA-C
AC079917.1
TMEM144
AC005162.1
AC022778.1
AC044810.2
AL391704.1
AP001978.1
LINC02454
RGS4
AC100768.2
UBASH3B
AL139383.1
TCTEX1D1
CNGA1
NGF
USP33
FYB2
OSMR
CDO1
ADAMTS19
AL160272.1
SCN4B
IRS2
SCNN1B
AP000446.1
LMCD1-AS1
CADM1
MAGEC3
TNN
ZNF117
MBOAT2
TTC38
AC092155.1
NECTIN3-AS1
PKIA
CTGF
PPP2R1B
LINC01435
MEGF9
LYZ
CYYR1-AS1
ADH1B
AC099566.1
AC115622.1
EDNRB
AC099687.1
CD53
FIRRE
RND3
CXCL12
ECHDC3
COL19A1
ADGRF5
TSPAN15
MIR155HG
HECW2
NOL4
PLCL1
HOXD10
SLC6A7
PLCZ1
RASGEF1B
NDST4
KITLG
LMX1A
AL671511.2
FAM117B
AC016708.1
ITGA7
AL356272.1
ADGRG5
AC104123.1
LINC01376
EFNA5
AC008760.2
LIPE-AS1
TSHR
FAM43A
STOX2
HS2ST1
PPARGC1A
AC069503.1
HILPDA
MECOM
LIPG
AC007376.2
PTPRB
AF130351.1
ERC2
BICC1
HADH
GATA6
TFPI2
NEO1
EXPH5
GPR176
PBX1
AC104827.1
LINC02253
PPFIA2
RAP2C-AS1
PLIN1
IRGM
AC064834.1
MDH1
HOPX
AC002985.2
HIST1H3H
OLFM2
CRYBG1
DOCK3
SEMA3E
AL356476.1
MMP3
PCA3
NPNT
AC002070.1
ADRA2A
AL365259.1
ANO4
TUBA1A
TMEM182
YPEL5
NOX4
GNG2
SRD5A2
AC111188.1
TNS3
STAT5A
ABLIM3
AC105094.2
HSD11B1
AC008691.1
FJX1
AC110023.1
AC133065.1
DAPP1
SLC7A6
NABP1
LINC01707
AC016924.1
NEXN
IL10RA
MT-ND1
AC016705.2
NR2F1-AS1
APPL2
ACSL1
GALNT18
AC016687.2
LTF
ZEB1-AS1
FGF2
UNC5C
ZFHX4-AS1
CACNA2D3
NQO1
NRK
PLS1
OR2L3
AC007255.1
PPP1R12B
GREB1
AADAC
CPO
ISPD
NTRK2
KIAA1324L
HGF
SCNN1G
MACROD2
AC125613.1
AC090579.1
AC093110.1
STON2
KCNIP2
LINC02476
AC097059.1
FHOD3
ZNF189
ABHD5
PHYHD1
WDR49
ADIRF
TM4SF1
Z99289.1
AC139718.2
AC079760.1
KIAA1549
BTNL8
NIM1K
TXNDC8
AC092378.1
GABRB1
IFITM3
ICAM4
BBOX1
AL845331.2
AC069228.1
MUSK
GDF10
AC020911.2
SERPINE2
GREB1L
AF250324.1
ERRFI1
MAMDC2
CCDC85B
AGTR1
AC104248.1
ST6GAL1
IL33
SHROOM2
EGFL6
CHSY3
AC096564.1
CLEC4E
MIR646HG
NR2F2
CDKN2D
AC019330.1
JAK2
TMEM163
TEK
EFCAB12
FHIT
YAP1
NMT2
CHST9
PPARG
PLAU
MGST1
SCARB1
EGFLAM
PDGFRB
C9orf92
ACADL
SOX5
PXDNL
RETREG1
AC013270.1
KCNMB2
AC023590.1
CNTNAP4
FAM199X
CD48
MREG
BCL2L13
AC002429.2
LINC01611
WARS
DOCK5
DIO2-AS1
KBTBD11
AC009271.1
TPD52L1
C11orf63
ACSS2
GDA
AC092264.1
BHLHE40-AS1
GHR
LOXL2
AC131025.2
EDNRA
AP005212.5
ME1
NKD1
GALNT14
DPT
AP001528.2
ECM1
LINC02126
FAM180A
GABRE
SLC26A2
LYPD6B
PRICKLE1
AC021594.2
NREP-AS1
AC106894.1
PQLC1
AL157392.2
LGR6
NOTCH3
AL357153.2
ATP10A
CDCA2
HMMR
WISP1
SMOC1
SYN3
DDI2
LINC01606
GCLC
CRTAC1
SLC25A25
PART1
BASP1
HIF1A-AS2
AC083923.2
DHRS3
SAMD12
AL512274.1
AC011824.2
CR2
FAM9C
G6PC2
LINC02160
SCG2
LINC01579
ACER2
MYOM1
AC124947.1
F2RL3
HRH1
NES
TESC
HIVEP3
CTTNBP2
MYO1G
SPEG
AC090709.1
AC246817.1
MIR548A1HG
AC079793.1
RHOBTB3
MAP3K5
FREM1
AC012668.3
AC091940.1
TBX5
LILRA1
SLC4A1
VSX2
THBS4
FIGN
PLEKHG1
ADAM19
MPP7
AC090518.1
STUM
PDE2A
BX088723.1
OPTN
ZNF503-AS1
RFTN2
SLC10A6
CCDC102B
PLXNA4
ADAMTS17
XKR9
STK38L
TMCC3
TBX2
TGM1
AC110767.1
CAMK2B
PQLC2L
SYN2
NDC80
LINC01204
DYSF
RGL3
MT-CYB
C1orf185
APLNR
RPL11
ITGA6
RPL12
SERPINB2
STK35
RIMS1
NPR3
TPTE2
DAB1
RGS22
SEMA5B
SLC6A1
MEF2C-AS1
MAP3K20-AS1
THSD4-AS1
USP24
ATOH8
FAM169A
SSUH2
SGK2
AC090125.1
AKR1C1
SOX6
SNTA1
AC009812.1
AC021351.1
AL499616.1
LGR5
ROCK2
MND1
PGAP1
GALNT13
ENPP3
IFI30
AC020704.1
MAP2K6
LINC02228
MEI4
CCDC34
FAM198B
RAP1GAP2
PTPRD
C6orf106
MXRA5
KANK1
PRKCQ-AS1
AC093607.1
ORC2
FAM20A
RASSF9
CRB1
RNF217-AS1
NELL2
STK26
ALPK3
ARHGEF26
AC072062.1
PGD
AF064860.1
KIAA1644
LINC00570
OR2L2
LGALS12
MCTP1
C3orf70
MS4A4A
SLC15A5
EPGN
MGEA5
COL4A6
PAPSS1
LRP4-AS1
CPM
LINC01252
AL365203.1
ALPL
LEF1-AS1
EYS
ANKRD7
AF165147.1
IL21R
RPS23
SLC5A3
GPC3
KIF21A
SCN3B
CHL1
THBS2
GYPA
DNAH12
AL592295.4
PWRN1
ITIH5
SLCO5A1
AC005906.2
PFKFB3
ANGPT4
GHRHR
LINC00603
MYRIP
UNC13C
CASS4
C17orf64
AC073569.2
AL603840.1
CD28
HEY1
STC2
MFSD2A
TRPM6
LRTM1
RNF144A
AC093801.1
HPCAL1
AC015878.1
TARID
WNK2
MLPH
FAM111B
CD226
BMPER
DNAI1
CRTAM
AC090791.1
LINC01762
HTRA3
NUDT4
MAP3K13
MT-ND4
LIPN
DMD
CCDC36
AC107032.2
AC022796.1
TOP2A
AC023886.1
HSD17B6
TTPA
KLRC4-KLRK1
TOX3
ACKR3
AC069208.1
JAKMIP1
MIR3936HG
SIM1
AC093893.1
AC124254.1
GABRG3
NLGN1
FENDRR
MPPED2
HEPACAM
PYCARD
RMST
RPL28
FLG-AS1
BACH2
AC068875.1
RHBDL2
C12orf40
AL050403.2
SLC25A18
CYB5A
ACADM
GRIN3A
MT1A
TMEM154
SLC16A1
LINC00970
LINC02306
HAS2-AS1
LDLR
SH3KBP1
SH3BGR
MIR4300HG
MARK1
ZC3H12B
AC007785.1
DAPK1
NTN1
SPX
SLC7A6OS
AC022126.1
LINC02389
MAPT-AS1
GIMAP7
SRGAP3
AC022523.1
SERINC5
B3GALNT2
RPL34-AS1
GINS3
FAM214A
BCAT1
AC106791.1
LINC02133
AC099753.1
LINC00506
ARAP2
SORBS1
AL512638.2
AC004784.1
RSPO3
KCNH8
AMPD3
CSRP2
CPEB2
MICAL2
EEPD1
TSPAN8
MYO16-AS1
PPP1R9A
TBX15
PTPN13
CPEB2-AS1
NCF2
AC006305.1
C13orf42
SMIM3
AL390783.1
APBB1IP
AL122019.1
OSBPL6
SLC39A14
SLC24A3
LRRC9
RARB
TMEM132B
SLC8A3
JPH2
FAT3
DNAJC27
CH25H
NT5DC3
LINC02082
AC008957.2
HSPA1B
SMAD9
PDGFC
FCRL1
MAP2K1
AL354732.1
TPT1
RNF212B
AC100844.1
AL161935.1
KLHL34
AC087457.1
C2orf48
Z86062.2
CEP126
LINC02542
LINC00159
CD84
ADAMTS9-AS1
ITGA1
SUGCT
RAI2
LINC00536
UBA6-AS1
AF127577.4
SH3GL3
SIDT1
AC092746.1
LIN7A
AC020718.1
DSP
GSDMB
OSBPL3
PRICKLE2
SLC39A11
LINC01358
RNF165
SPRY1
RNASE1
C5orf64
MIR4713HG
LINC02254
BHLHE22
AC010395.1
STOML3
HS6ST2
MBNL3
LIX1-AS1
GBE1
AFAP1
MIR2052HG
VIPR1
KIAA1211L
FAM107A
SLC19A1
RALYL
CPB2-AS1
KIF18A
PARD6B
SLC6A1-AS1
PAPD5
CALCR
THRB-AS1
MFAP5
C11orf44
GPR20
BHMT2
TMEM51
LRGUK
MYO1F
PRUNE2
AP003025.1
INSIG1
CACNA2D1
IL15
AC073082.1
STARD13-AS
NCOA7-AS1
CFAP47
TTTY10
SPATA18
RAB31
MYHAS
SHROOM4
CDS1
VIPR2
LILRB5
COL4A5
AC073359.2
LINC01378
LINC02005
AC091691.2
GPR65
PPFIA2-AS1
FZD4
B2M
LMO3
NHS
ADAMTSL3
ZSWIM5
AC007388.1
CNKSR3
AC022360.2
HFM1
CDKL1
AC103409.1
AC012574.1
PPP1R14C
LINC02341
SLC27A6
C6orf58
FRMD5
COL4A3
AC012499.1
AC009126.1
TGFBR3
BHLHE40
AASS
ADM
TRPS1
CLTCL1
SPOCK2
COL28A1
GNA14-AS1
NIPAL1
RGS13
AC007920.2
AC002465.1
LINC01905
AC117513.1
PLP1
AC114316.2
LINC00299
ITGA2B
FGFR2
SCGB2B2
AACS
ARNT2
MAP3K7CL
EPHB1
EML6
SOD2
KIF6
PLEKHM3
ROR2
SYT17
NID2
AP002383.3
AC025917.1
GRID1
AC007681.1
REEP1
CLIP4
AC007495.1
FHL1
HSDL2
SLC16A7
CD200
FRMD3
VWC2L
LINC01807
SLC45A2
SLC8A2
MT-CO1
LINC01951
AC010235.1
AC008060.3
IGSF23
CRISPLD1
GPLD1
SLC16A9
TLN2
HS3ST5
FRMD4A
LINC02202
LRP4
ABRA
JAKMIP2-AS1
KCNK5
GPNMB
KATNAL2
ST8SIA4
LEKR1
CACNA1E
AF130417.1
PPP1R16B
AC104170.1
CCL8
ZNF385D-AS2
SOD3
AL359232.1
SLFN12L
TIMP4
SPNS2
WNT9A
SAV1
TRAC
LINC00681
TACSTD2
KANSL1L
NRN1
AL390860.1
CSMD2
WASHC2A
EMILIN2
HMGA2
AL157371.2
CASC16
PRSS23
ABCG1
GNG12-AS1
PYGL
C2CD6
HDAC2-AS2
FAM124A
DDAH1
FIBIN
LINC01392
SEPT11
NNT
ABCC6
IKZF3
HOMER2
SLC1A2
MKX
VWA3B
AC092756.1
NPTX2
SDC4
PTN
CFAP61
PYHIN1
ZMAT4
ARHGAP32
PSG4
IQCJ-SCHIP1
ZNF536
PDZRN3
AC003984.1
GPR158
AL445309.1
RPE65
AC099518.1
GS1-24F4.2
LINC00305
PSORS1C3
TREML1
ERV3-1
LONRF2
GLUL
MFAP4
AIG1
CCDC173
AC010168.1
CSGALNACT1
HCN1
AL359220.1
ASPH
MTERF1
PLCE1
MAATS1
VWCE
AP003086.2
GPR156
DMGDH
TSHZ1
TMEM132C
CADM2-AS1
CCDC175
RETSAT
CCR7
HRK
C7orf69
AC010894.2
AC114480.1
MS4A1
SLAMF7
AC025566.1
AC106895.1
AC121338.1
FRMD7
KIR2DL4
CD36
SLC22A16
MED12L
LINC00702
RGS1
ALOX5
TGFBI
AC006269.1
MRVI1-AS1
RAMP1
KLF5
ZC4H2
RBPMS
C3orf58
AC078882.1
TMEM246-AS1
PDK3
CYP1B1-AS1
NTN4
GLYATL2
FAM49A
FAM104A
OPRM1
LINC00240
AEBP1
AC105430.1
CILP
SPATA17
AC009226.1
COBLL1
ANKH
SLC6A15
KIAA1211
AC004158.1
MOGAT1
LRAT
AP005329.2
PCAT19
PAMR1
PIK3AP1
AC009055.1
AC118470.1
PEG10
LINC01121
PMEPA1
AC244131.2
HOMER1
LINC01902
AC008014.1
ABHD2
LINC01619
RASL12
KIF4A
LRIG1
CALCB
AC008629.1
AL137220.1
PAPPA
PSMD8
GAS7
TMC1
CR1
DNAH14
PTPRF
IFI27L2
MYB
SLC17A1
PPM1H
EFHD1
SPTLC3
AGPAT2
ZBTB7C
STOM
LINC01684
NAA50
SULT2B1
CDCP1
AC019130.1
AC024084.1
PCSK5
SLC47A1
TRG-AS1
RPP38
ECM2
APOC1
CD6
AL445259.1
AC007529.1
STAC
C2orf88
PLCXD2
PARD6G
LINC01885
PTPRE
POLR1E
PRKAR2A
AL355306.2
TSPAN13
GRIA3
SGK1
CDHR3
RASL11A
NSDHL
AC011369.1
COQ8A
DAAM1
CLIC3
GPR171
IL1RAPL2
LINC02242
PDK4
LINC02426
P3H2
SLC35G1
MB21D2
ZFYVE28
S100A8
NET1
BAIAP2
LIMS1
NXPE3
PCAT29
LINC02438
C1orf198
ST8SIA1
SH3BGRL2
EID1
HMGN5
SGCD
DIAPH2-AS1
AF123462.1
NPAS2
LINC02198
GRIK4
SPDYA
ATP9A
NXN
IRF6
ATP2A3
AC064875.1
GLRA2
DKK3
SERPINB9
ZPBP
VAT1L
AR
ADAMTS5
AL136084.2
IGHA1
AC009720.1
AC060234.3
AC091138.1
AC093909.4
AL049775.1
CCL3
DOK7
DPCR1
LINC01221
NR1I2
OR51E2
FREM2
GADD45B
KIF25
CFAP70
M1AP
SPTLC2
PABPC5-AS1
CCR1
S100A16
SHROOM3
AC104036.1
AC106895.2
AL353613.1
AP003063.2
FAM69C
GBX1
IQGAP3
EDA
DDR2
INPP5D
MT-CO3
CORO2A
HMCN2
AC092611.1
LINC02027
ADAMTSL2
INSL6
TRPC6
OLFM1
TRIM52
NFKBIA
EPHA4
PEMT
AP000787.1
SOX4
TTC9
SATB1-AS1
LINC02102
MT-CO2
PCAT1
C1QTNF1
FAM84A
ANO5
AC013565.1
AC008074.1
MT1X
AC130415.1
AL355076.2
AC010601.1
VWA2
AC244021.1
GPRIN3
PTGS1
NCEH1
SUCNR1
AC092979.1
FOXL1
FLJ46284
JPH1
ABCC9
RCOR1
GABRA2
PIK3C2B
RP1
AL365295.1
FAM213A
FAM110B
AP001528.1
MGAM
PHF6
HRH2
KIF5C
SLC17A3
HSD17B4
CCDC107
YWHAG
MAGI2-AS3
DNAJC27-AS1
ENG
GPX3
CCDC146
PLIN2
RPL15
ADGRE5
CCDC148-AS1
LINC01163
SRL
AC092535.3
SYCP2L
CGNL1
CDH18
FRMD4B
SNX10
AC008825.1
AC008115.2
AC254629.1
ERVFRD-1
MYH2
AC113391.1
OR3A3
EHBP1
LIMCH1
LINC01931
SORT1
USP47
BMP3
PYGO1
PTPRJ
PRICKLE2-AS3
KCNK13
FCMR
AC003988.1
GRIK3
Z94721.2
TMEM2
MARCKSL1
AL136985.3
AL590385.2
VKORC1L1
ERG
TMOD2
DLEU7-AS1
RASGRF1
AL445430.1
AC007563.2
NLGN4Y
AC046136.1
CCDC148
RNF185
ASRGL1
NFASC
SPSB4
AC007923.4
AC000403.1
AC002407.1
AC008764.4
AC011455.1
AC023469.2
AC048344.1
AC079896.1
AC090136.3
AC091814.1
AC119800.1
AL078612.2
AL355310.2
AL356804.1
AL391095.2
AL391597.2
AP006216.1
BEX1
FRMPD2
KIR3DL1
LINC01853
PAQR9
PCDHA4
SFN
TMEM26
TNFSF18
XCL1
AC000124.1
AC002384.1
AC005329.3
AC009090.3
AC090103.1
AC092673.1
AC093001.1
AC098848.1
AC104119.1
AC113133.1
AL132800.1
AL133467.2
AL357833.1
AP000893.2
AVP
BANCR
CCR4
CPN2
FOXQ1
HES5
LINC01412
LINC01701
LINC02312
TTK
VGF
AC079447.1
LINC01482
AC008250.1
LINC00271
CFLAR-AS1
SOCS3
AC016152.1
SULT1B1
EMCN
AF121898.1
GRAMD1B
AL161751.1
PCDH9-AS4
AC025569.1
UGT2B4
AC005224.3
USP13
AP002370.2
SRPX2
KANK4
C17orf58
CD2
C12orf42
CCDC60
SCARA5
RIMS2
IPCEF1
AL591368.1
TRIM5
AC017101.1
IL17RE
AL512380.2
SLC9B1
EPM2A
TEX36
OTUD7B
RPS5
GAREM1
AC023908.3
C11orf97
LINC01271
UCHL1-AS1
ALDH1L1-AS2
AC008878.3
DHDDS
DNAH7
AC092813.1
SLC5A4-AS1
PADI4
STK32A
ACTB
EPS8
RNF217
EIF1B-AS1
AC091906.1
GPR143
PPP4R4
AL583785.1
PNPLA3
AL133346.1
AC016590.1
IL26
AL133342.1
LINC01889
AC005837.1
MUC19
LINC02384
PKP1
BUB1B
AL121748.1
DUSP2
LRP5L
AC091948.1
CADPS2
CAV3
PRRG4
ADH4
SERPINA3
GIPR
LAMA3
SCN4A
SLC7A7
LRRN4CL
SLC1A4
KLRD1
AL136987.1
AP000812.1
PDE11A
SLCO4A1
AC011287.2
DSG2
CAPS2
MBD2
ACSM4
RNF182
BACE2
WNT9B
STXBP5-AS1
LAYN
RGS2
MPZL2
FABP5
KCNE4
BMPR1A
LINC00484
STPG2-AS1
CATSPERB
ZNF367
RALGPS2
SCUBE2
ISLR
RFESD
MYO1B
LINC01104
KDR
JDP2
MICALCL
TAPT1-AS1
CDH11
SPIN3
AL031686.1
LINC00882
AOX1
MID1
STK32A-AS1
COX10-AS1
MYRFL
PNPLA2
DPP6
IP6K3
HYAL2
NOTCH4
PDK2
PRKG1
AC109927.1
MAST4
FGR
AL390036.1
SLC6A4
MEOX1
SLAIN1
AC090204.1
IL1RAP
FOXO1
ABI3BP
LINC02507
CYGB
C9orf84
AC079760.2
B4GALT6
LINC01146
NRP2
GNAO1
BRINP1
RNF112
ATP8A2
GMCL1
ID2
KLF2
TPX2
OSBPL10
CYSLTR1
ADAM22
HORMAD2
AC008696.2
AC053527.1
GLRA1
LRRC2
CDH23
FOSL1
MYBL2
EPB41L3
ZBTB44
CTD-2201I18.1
RPL37
NCALD
SLC38A1
DNAH9
AC092957.1
GXYLT2
CCDC83
CCDC68
OSR1
AC105383.1
H19
SEPT6
ECHDC2
AC018697.1
FHDC1
HES4
AC005064.1
PALD1
WDR20
CCL26
AC000061.1
AC017104.1
AC087683.2
AC233976.1
LINC00996
OR52N5
ACSM6
P2RY6
MARCKS
HLA-E
AIF1L
KIF21B
AC021086.1
NCKAP1L
AC093010.2
AC006159.2
AC008438.2
AC104031.1
CA3
FGF18
NPHP3-AS1
FADS3
XKR6
NR2F2-AS1
AC103974.1
CYBA
AC105180.1
GOLGA6L7P
CD300LF
DLGAP1-AS4
CTNNAL1
CFAP58
LINC02469
AC079598.1
AC010890.1
AL033397.2
AL137145.2
PIF1
PPM1B
PHLDA1
PLAC8
AC126178.1
ITGA10
AC091212.1
AL117190.1
MAP3K19
ARHGAP28
CSAD
CYP4A22-AS1
ACACB
PRKD1
PPP2R2C
AL136018.1
AP001825.1
HEPN1
SLCO1C1
GPATCH11
ALG14
DLL1
SNTB1
AC103949.1
IKZF2
RANBP17
BHMT
CDK15
CEACAM1
LINC01019
TBC1D4
C8orf88
AC007495.2
WDR93
AF127936.1
RXRG
AC023510.1
AC245748.2
THRA1/BTR
LINC02492
PNOC
TMEM55A
AC024909.1
KAZN
TMEM135
IGSF9B
AC079465.1
AC005162.3
SAT1
FAM162B
GABRA3
ZBED3
TG
KLHL6
YIPF7
IGFBP7-AS1
CEBPD
ADRA1B
LINC00571
AMPH
CHST7
GREM2
NUP210
CD44
AC004551.1
UGDH
COL5A3
ITGB2
CIT
TMED3
CASC1
HDX
AL592295.3
CNTFR
DCLK1
ZIM2
AL513283.1
FMN2
FASN
AC016642.1
LINC01791
LRRC49
PIK3R1
LINC01801
AC100801.1
PRSS12
MATN2
NDRG4
AL353811.1
TRABD2A
ENOX2
TMEM255A
AC025180.1
CCDC59
PDHX
AC083973.1
ACAN
COLEC10
BDKRB2
AMER2
CASC19
GNA14
C8orf4
STK17B
HOXD9
LINC01618
FAM26F
GRAP2
AC139491.4
CSRNP3
RMND5A
LINC01504
LINC00866
AL354696.2
S1PR1
AC074011.1
AL591501.1
AL162411.1
ANKRD34C-AS1
ATP6AP1L
FBXO17
ITPKC
ROBO4
PHLDB1
CCDC158
C3orf67-AS1
AKAP12
SSH1
FAM196B
KCNS3
SLC46A3
TMEM56-RWDD3
SULF1
PRKCD
AL589935.1
ITGB4
LINC02257
MAP3K20
AC011586.1
MIR34AHG
TNFAIP8L3
SUCLG1
C6orf10
SH3GL2
CASC17
ADD3-AS1
KCNT2
AC139769.2
PYGB
HBG2
ITPRIP
ERICH6
FBXO43
GZMK
IFNLR1
LINC01923
LRRN2
RASSF4
HEG1
AC005696.4
AC008448.1
AC010267.1
AC013402.1
AC023983.2
AC025431.1
AC048344.4
AC064805.1
AC068473.3
AC078909.2
AC079799.1
AC087242.1
AC090241.2
AC123905.1
AC124067.3
ADARB2-AS1
AF186192.1
AF196972.1
AL024507.2
AL133406.2
AL162457.2
AL359815.1
AL360219.1
AL512604.2
AP000223.1
AP000880.1
AP003557.1
B3GAT1
BSPH1
C19orf73
CU633906.1
FABP12
FNDC8
IL13RA2
KDF1
LINC01312
LINC01436
LINC01790
LINC01805
LINC01862
LINC02113
LINC02361
LIPF
MMP1
MMP7
NEFH
OR2H2
OXGR1
PCSK1N
PCSK6-AS1
PGA3
PPP1R27
SPATA4
STMN4
TMEM132E
TMEM212-AS1
TNFRSF13C
TREML2
Z98949.1
APBA1
ELL2
SHANK2
AC103740.1
PALMD
LGALS3
AC107072.1
TDRD5
AL024508.1
SPATA32
LONRF3
ARSB
KCNE1
GAS2
SNX18
DPP10
ROBO1
C3orf67
AC006504.7
AL591806.3
TEX48
ADGRL4
LINC02226
OSR2
TNFSF8
LINC00467
NDFIP2
HEBP2
LAMA4
BLOC1S5-TXNDC5
AC012409.2
MAEL
ARFGEF3
AC027237.3
PLS3-AS1
AC025580.1
CLEC4F
FILIP1
OGFRL1
ITGB1
AL359922.1
TTC8
AC026523.1
RNF111
AL591885.1
GLOD5
LINC01915
MOXD1
MCMDC2
TCF7L2
MAGI2
EHD4
TEX9
CMYA5
ADAMTS1
CNTN3
LINC00710
USP30
PTMS
KL
GYS2
AC010343.3
ATP2B2
AC006116.5
AC096666.1
BSPRY
DAZL
HJURP
KRT23
LINC00587
LINC02533
MIR31HG
NAV2-AS5
UBASH3A
VSTM2B
SNHG22
C22orf34
CNTN4-AS2
MGC15885
TMEM170B
AP003063.1
LRRC8B
HERC6
BTC
SHMT1
AC116312.1
AC245748.1
ACTN3
GOLGA8K
AC007292.1
AC016933.1
AL161772.1
LINC01789
PIKFYVE
CDKN2B
CEPT1
PDE4D
SCCPDH
BCAR3
AC019131.1
SLC22A10
CACNA1H
AC008507.2
CD3G
NKPD1
AC117834.1
LINC00499
LINC01033
NGFR
PRH1
EPAS1
PAIP2B
DOCK8
AL353801.1
ADCY6
AC131956.2
AC010636.2
KIF9-AS1
PITX3
NMNAT2
NAAA
LINC01550
ZBTB46
FLRT2
SLC16A12-AS1
AZI2
PLPPR4
ARSK
ABLIM2
PDGFB
PTGDR
AGBL3
ARID5B
TMEM64
BCAS4
PCED1B
AC103794.1
LINC02086
AL445472.1
STX12
SLC44A5
AC095350.2
AIFM2
SH3RF2
GUCY1B3
CASC15
CTXND1
RAB11FIP1
TIE1
COX14
LCP2
C11orf65
GRPEL2-AS1
AP002075.1
SLC25A33
AC008080.3
AC078785.1
MAP4K5
DMRT3
AL136040.1
KCTD1
MYO5C
A1CF
HTR2A
TAF7L
EPHA1-AS1
CD3E
AL357052.1
SLC52A1
SORL1
SOX9
AC012613.1
PLA2G4A
OSGIN2
DTWD2
PBLD
ARHGAP22
AC025284.1
ACYP2
AL606534.1
LINC02422
PEX5L-AS2
SCN1A
BRCA2
PRDM6
AC007513.1
PARD3
AC114760.2
LINC00113
HLX-AS1
SCP2
SPOCK1
AC112487.1
CDC42EP4
S100A11
CD200R1
GLIS1
SCOC-AS1
GRIA1
FAM76A
GK-AS1
LRRC63
AL356258.1
AL034417.4
CREB5
CCL14
AC074286.1
EGR3
STK17A
CACHD1
CST3
AC022915.2
AC004870.4
SPINK8
SH3D19
IL4R
SLC16A6
AC087672.3
AC023824.4
FOXF1
ATAD2
RBM11
NCKAP5L
NFKB1
LINC01135
AC112907.1
MGC27382
AC090376.1
RAB44
STK39
AC006299.1
AC141930.1
THRB
CNTNAP3
AC139713.2
AL354809.1
SESN1
TFPI
SIRPB2
CDC37L1
LHFPL3-AS1
TOX2
CTSK
AC011997.1
REN
ITGAV
ARHGDIB
XDH
AC016885.2
CXXC4
DGAT2L6
FAM78B
DECR1
ANKRD44
HPR
SYT2
CTDSPL
TESK2
ADD2
STEAP2
SLC5A6
METTL24
ABCC3
AC012560.1
AC092490.2
C20orf197
LINC00398
LINC01375
SNX20
SPDYE16
AC108718.1
LINC00390
TMCO5A
AC109471.3
ST6GALNAC3
ALS2CR12
ITGA2
ZNF827
TRPC3
DLEU7
GIMAP8
LAPTM4B
TIAM1
ADGRG3
RUBCNL
MSX1
SCYL3
AC015914.1
CDC14B
LINC01510
NUTM1
AC022762.1
FOXP2
LINC01393
C4orf32
NEK10
AC116666.1
SERPINB1
MAST4-IT1
CCNT2-AS1
OSBP2
CCDC30
NCOA7
LINC01133
AC004946.1
AC089999.3
AC110058.1
AC129807.1
AP000688.3
C5orf47
CD24
CTLA4
LBX2
NXPE4
PROKR1
PIM1
EBF1
AC004540.1
CYP19A1
AL118508.2
AL136307.1
AL359633.2
CD244
UGT8
PGR
AGFG1
ENTPD3-AS1
EEA1
MPP1
BRIP1
PRKCQ
PRICKLE2-AS1
QKI
RASD1
SLC25A53
PRRX1
SPON1-AS1
LINC02172
CHST2
AC125793.1
LINC00382
ABCG5
KCNMA1-AS1
CERS3-AS1
CHRDL1
NDRG1
NNT-AS1
S100B
SDC2
AC026894.1
KIAA1456
SEL1L3
AC246817.2
NFATC1
LRMP
TMEM100
SSX2IP
CERS3
PECAM1
LINC01230
APMAP
ABHD12B
AC016586.1
AC025038.1
AC080129.2
AC093817.1
AC104232.2
AC233266.2
AL096869.1
AL353804.2
AL391152.1
FCER1A
IL12A
PCDHA13
RIIAD1
SIRPG
AC009097.4
AC010132.4
AC011747.2
AC012146.3
AC016542.1
AC027458.1
AC091946.2
AC099063.1
AC118757.1
AC124861.1
ADGRA1
AGBL5-IT1
AL109976.1
AL592528.1
AP000438.1
ASGR2
ATP2A1-AS1
B3GNT7
C22orf31
C4orf26
CEP83-AS1
CLEC12B
CSE1L-AS1
FAM240B
IL13
LINC01732
LINC01808
LINC01865
LINC02410
MEIS1-AS3
NIPAL4
OR8A1
OXT
PPP1R14D
PTTG1
S100A3
TEX35
TFAP2B
UGT2B17
GADL1
SLC4A9
AL162725.2
HTRA4
SCG5
RUNX2
KLHL8
MAFB
NOL3
TNFRSF10D
AL158071.3
SLC15A1
UNC80
KDM4D
BBOX1-AS1
LINC01483
HIF1A-AS1
KIAA0825
EAF2
FAM222A
AC006145.1
PLEKHH2
PRIMA1
PDGFA
AC107973.1
ISOC1
HCLS1
CELSR1
TYRO3
NEGR1
PLS3
ODC1
ACOXL-AS1
ETV1
HLA-DRB5
AC010655.4
PIK3R3
AC007743.1
CPPED1
CLIC6
ADGRA3
PRKG1-AS1
SLC16A1-AS1
SLC7A10
ZSWIM4
RPS15A
AC005697.1
FAM46A
SLC22A15
TMEM161B-AS1
BAALC-AS1
LINC02105
AC008543.5
CDK1
MRAP2
HLA-DPA1
RFX3-AS1
PTGR1
ANGPT2
INHBA
HRASLS
DOK5
AL163952.1
IFITM2
AC061992.1
LPIN1
SMS
ADHFE1
AC090630.1
TEAD4
KIF26B
CTSB
GLRB
AC026461.1
PGM2L1
YY1AP1
AL121761.1
ELAVL2
RRAD
VWA1
LINC00314
CHKA
CCDC125
DPYSL3
CNNM2
LINC01920
LINC01128
OSTN
Z94057.1
MAP1B
PPP1R42
AC097662.1
AC137770.1
AL133415.1
C1orf228
UBA52
JAM2
FBXO42
TULP2
PRDX6
GRM3
ANTXR2
AC008534.1
ABCA5
AC078962.2
AL353759.1
CASC20
TSPEAR-AS2
UTAT33
AC117377.1
LINC01424
LINC02505
PWRN4
SLC6A3
USP27X
AC097372.3
DLL4
RNF130
AC007040.2
ASTL
PDE3A
NKAPL
APPBP2
AC005089.1
PELI2
PIK3IP1-AS1
NMNAT3
PDE9A
ABCC4
RPL30
MLF1
FRK
CD101
C1orf194
CCDC160
TEKT1
AC092666.1
SOS1
NUSAP1
AC018680.1
SLC27A2
AZIN1
AC009961.1
TRIM29
GLIPR1L1
KIF15
ANKS1B
TNIP1
HACD2
BNC2
CCDC26
AL356124.1
CEP57L1
SSTR2
ATF3
DYNC1I1
MAPT
ANO6
USF3
AC091182.1
SLC22A9
IRAK2
WDR11-AS1
NOX5
RNF175
SLC7A14
PODN
CA12
FAM19A5
SQSTM1
CPS1
DNM3
NREP
LINC02207
FGF10-AS1
GAP43
OR3A2
EFCAB6
WDR78
GIPC1
AC008443.1
DPY19L2
SATB2
AC005550.3
TMC7
CYP26B1
CNKSR2
AC003092.1
AC004870.2
AC009093.6
AP003123.1
C1QTNF9
FTCD
HEATR9
LINC00449
U91324.1
ZIM2-AS1
RAMP2
SLTM
ATP8B4
ROR1-AS1
AC114763.1
PSG8
AL513329.1
SESN3
CPNE5
CACNB4
SLC41A2
KLHL22
MAMDC2-AS1
AL683813.1
C14orf180
LINC02206
SLC9A7
HSPA12A
NRG2
C12orf60
FAM110D
GLIPR1L2
RHBDL3
SCD
RPS13
AL589843.1
RBMS3-AS2
AC069148.1
CACNG2
RAB39A
PRMT7
SHANK3
AP001527.2
ELMOD1
AC012485.3
BGN
AC116366.3
ICK
BLCAP
SH2D3C
FMO1
CNBD1
AC093772.1
TSKU
AP000755.2
AC099542.1
CENPK
DLG2
SFMBT2
SFTPD
AC078850.2
CCDC122
RNF220
PPARA
ARF4
MAGED1
TEAD1
IGFBP2
AC107029.2
AC027701.1
VIPR1-AS1
AC010198.1
HLF
DHRS9
PIK3CA
MROH8
CPA6
SPI1
RPS6KA6
LINC02340
Z94721.1
LINC01818
MIR181A2HG
ROR1
RACGAP1
AC025263.1
HEXA-AS1
LINC00211
MAN1B1-AS1
TMPRSS12
AC104663.1
FAM83D
RAB3B
TLR8
USP54
LY96
RPL35
TBC1D31
CSF1R
ELOVL5
AL359265.3
TIMP3
RPL27
SLC5A4
RORB-AS1
BATF
ARHGAP11A
CFAP46
NLRC3
MAP3K21
LINC01586
MMP26
PRR5L
AL034399.2
AC093879.1
DAAM2
MME-AS1
PTCHD1
PNCK
MAP1A
FPR1
TANK
HACD1
AC087477.2
LINC00535
STAT5B
RSPH3
RNF144A-AS1
AC025465.1
AC005208.1
FAM20C
TNFRSF11B
AC104574.1
SIGLEC10
AC002463.1
AC068756.1
LINC02057
LARP4
AC090617.6
UAP1
ZNF569
LINC01562
SLC12A8
CTAGE5
WNT2B
AL138752.2
CYTH4
CHN1
MX2
RAB20
AZIN1-AS1
PRDM16
ASXL3
SNX21
HEY2
IL18RAP
RSPO1
OGN
GPR180
AC137579.1
TMEM255B
CASC21
AL357054.2
KCNG2
AL445231.1
GRM7-AS1
AC005586.2
AC006372.3
AC009630.2
AC015967.1
AC016229.2
AC018926.3
AC027575.4
AC079015.1
AC096576.3
AC126283.1
AL138830.1
AL163973.2
AL390760.1
AL592402.1
AL807740.1
AP001150.1
BTN1A1
C12orf50
C19orf67
CCDC13-AS1
CHST6
CLEC4G
FOLR1
KRT24
LINC00487
LINC00491
LINC01055
LINC01350
LINC01413
LINC01936
LINC02273
MSC
OR8J1
PCDHA6
PGM5-AS1
PINCR
VGLL1
ZNF695
ZNF709
AC004690.2
AC004837.2
AC020743.2
AC023669.1
AC025271.2
AC091564.2
AC092634.3
AL050344.1
AL354707.1
AL359697.1
AL645608.1
C1orf158
CALML3-AS1
LINC01443
LINC01938
LINC02450
MIR133A1HG
NMRK2
OR10A2
RD3
TNF
TNFSF15
SMAD6
SMIM8
ITPKB
FAM186A
TNFSF10
SLC43A2
ACSF2
AP001341.1
AC100771.2
AC016766.1
AC090673.1
ARHGAP44
PLD1
FOXC1
TMLHE-AS1
PLEKHA4
TSPEAR
PPP1R1C
AC103591.3
PTGFR
NIFK-AS1
ECHDC1
AC114956.3
XACT
ZNF248
PLAG1
EXOC3L4
THEMIS2
TNFSF13B
ATP1B3-AS1
LINC02378
SLC19A2
LINC01894
LINC01429
EML5
FAT1
LINC02407
LINC01169
FRMD6-AS2
RAB3IP
CCDC69
LNPEP
RHOXF1-AS1
TC2N
FNDC4
SLC12A2
LONRF1
AC083967.1
LINC02362
TMEM56
TBC1D16
ZNF438
SLC38A4
PVT1
SETMAR
EPB41
PDXK
EGFL7
PRB2
PTPN6
AC119396.1
LINC01362
SESTD1
AC055758.2
AC093797.1
AC096711.3
AC025164.2
FOXN4
BCL6
MRAS
L1TD1
MTFR2
MCCC2
AL356599.1
WDR64
CYP3A43
CHN2
VCL
GTDC1
TTC3
MYOM2
SNX13
AC008127.1
AL354794.1
TEKT3
DPF1
MEIS1
AC104836.1
ATG10
MPP5
SHC3
MGC32805
MPP4
AL355102.4
LINC00589
DLGAP1-AS5
LINC01208
TRGC2
PRSS3
AC009803.1
AC024560.1
AC068112.1
AC104823.1
AL033527.5
AL118508.1
CHODL-AS1
CLCA2
DNAJB5-AS1
LTK
OVCH2
SDR16C5
SPTA1
AP005436.1
LINC00346
MIR503HG
SYT6
TRBC2
ACVR1
KCNN4
HECW1
LINC02345
ADCY4
AL391427.1
MT-ND3
GCFC2
ORC6
ESRRB
AC005833.2
RIMKLB
AL160290.2
FAM171B
AL353801.3
PRKAG2
LAX1
AL157402.2
HFE2
TMEM45A
ITGB3BP
CENPN
PDGFRA
AC074327.1
AC022140.1
GFRAL
AC123912.4
PROS1
LINC02137
GNAL
GMPR
LPGAT1
UNQ6494
BOC
MPZL3
RTN4IP1
TMEM268
PTCH2
STRBP
ADCY1
SCN8A
RPS15
CASC8
CHST4
GDAP1
ATG9B
PARPBP
ZEB2
TRIM55
AL513164.1
LMNB1
PDZD8
AC016910.1
LNPK
CEBPB
PKIA-AS1
CFTR
TATDN1
HLA-DPB1
SDHAF3
MOCS1
LINC01899
AC068413.1
CNN1
C4orf19
CFAP161
AC090952.2
AL138694.1
AL158064.2
AP001961.1
BUB1
C1orf229
C3orf80
CHRNA5
PNMA2
PROK2
C14orf144
FCN2
PCGF6
ANKRD20A8P
C2orf83
IQSEC2
RPS17
NFKBID
HRCT1
LRP3
GPR137B
AP003555.3
TMEM185B
ADRA2B
SHC4
LIMA1
AC079950.1
SLC39A8
RAB38
CD109
TUSC5
EZR
HIST1H2BN
LINC01476
PDCD1LG2
PDE5A
TXNDC16
COPG2
CD93
PIK3CD
GKAP1
GPR63
LINC02343
C14orf105
LIPC
EEF1AKMT1
JAML
RPL7A
AC073941.1
AHRR
AL158209.1
AL133467.1
HOOK1
AL354771.1
CCNB1
AC087855.2
AL592043.1
P3H2-AS1
SCN5A
TCF4-AS1
PEX11A
AL445426.1
ZNF454
TMEM169
MMS22L
SRGN
TPD52
CRADD
OXCT1
COLQ
IL32
LYPLAL1
CASP9
CETP
AC022034.2
SELP
PRTG
C1orf132
TXLNG
SERPINI1
ATP1B1
AQP9
RMDN2-AS1
AL162254.1
C9orf147
KIAA0408
PLEK
PTEN
AC087321.1
AL158055.1
PRR11
CAHM
FAM222A-AS1
FERMT2
AC004224.2
ADAMTS14
SLC6A13
F11
TMEM217
AL356218.1
CD4
MBP
CDYL2
AC020779.2
AC010615.4
TNFRSF19
FAM184A
DUSP5
LINC02413
RASSF2
FSIP1
CHIT1
KCNA4
LDLRAD3
SH2D4B
AC036214.1
MYLK
PRTFDC1
BAALC
CHEK1
CAP2
GBF1
APEX2
RCAN1
LRRC32
GAS2L3
ZNF215
MCOLN2
LARGE-AS1
GRM8
HAVCR2
LINC01031
DCDC1
TMEM88
MAN1A1
NRG4
TMEM254-AS1
CR1L
PRKACB
PNPLA7
ELOVL2
AC087762.1
WASF3
SGPL1
PDCD4
TERB1
AL162497.1
MTIF3
CFAP221
ITGA11
CD274
CARNMT1
AJAP1
DGKE
ELOVL6
IL1RL2
SMIM30
AC125603.2
AC036176.1
ADAM8
CCDC18
KCNJ1
KCNK3
TMEM236
AC026333.3
AFG1L
CAPN7
AC016723.1
TTLL7
TLE3
TSEN2
SLC9A3R2
FAM60A
TRAT1
AC010884.1
AC037450.1
HOXA10-AS
LINC02331
MUC16
C2orf76
KLHL15
AC069272.1
AC011897.1
AC109992.2
AL050338.2
HIST1H2BJ
KIFC1
LINC02325
PEX5L-AS1
STARD6
AC006305.3
AC007608.1
CLGN
CX3CR1
TMEM40
ALDH18A1
COL4A2
ADCY3
SLC25A16
AC004990.1
AC005050.1
AC006296.2
AC008434.1
AC027312.1
AC037441.1
AC087392.3
AC090241.3
AC095032.2
AC244153.1
AL355810.1
AL391422.2
AP000346.1
ARTN
BDKRB1
DISP3
EPHA8
FOXF2
GZMH
KLRF2
LINC00333
LINC00528
LINC00574
MIR137HG
MNX1
NPY2R
PLGLB2
PRKCZ-AS1
RPRML
TNKS2-AS1
AC006262.1
AC008759.2
AC073062.1
AC090457.1
AC106874.1
AC108066.1
AL034549.2
AL160291.1
BX649632.1
C9orf66
CALY
CEACAM20
FLT3LG
LINC02143
LINC02429
OR2AG2
PITX1
LINC00158
SERPINI2
NINJ2
EFNB1
MASP1
AC015795.2
DUSP6
AC023421.2
CLDN23
AC023866.2
AC027237.2
MS4A2
AC005885.1
TNS1
AC090197.1
SLC44A3
PDGFRL
LINC02427
LINC02516
TAOK1
AL356515.1
LINC00463
TCHH
TMEM27
TRIM63
AC087477.5
AL049812.2
ADGRL3-AS1
AL353693.1
MELTF
SLA2
SLIT1
AC097376.2
ST7-AS2
WARS2-IT1
SYTL2
CACNA1B
AMOTL1
AXL
AL591686.2
SH3BP1
LPCAT4
RAPGEF4-AS1
LINC01037
NPSR1
COL5A2
STOX1
SPESP1
SOX5-AS1
LMO4
AP000919.2
LINC01913
HLCS
AC011933.4
AKAP7
ARRDC3-AS1
BDNF
SIM2
GFRA2
GRIP2
AL357060.2
FGL2
AL049874.3
CATSPERG
AC025822.2
SLC35E3
KCNQ1OT1
SOCS7
DTNA
RTL9
LINC00894
CCNF
LPIN2
ETNK2
PRMT9
AC100863.1
CD300A
DNAI2
LINC02112
LMO1
OLMALINC
AMOT
ATP10D
AF117829.1
SUCLA2
CYFIP2
TBC1D32
AL035427.1
MYO1E
GATA3
RFC3
IL13RA1
SCN11A
GAPDH
DOCK11
SLC40A1
KCTD3
AP005264.1
ANKRD45
AC004704.1
AL359715.2
CERS6
RTN4RL1
LPAR1
KTN1-AS1
TBC1D20
RFX8
CATSPERE
EXOC6
AL031316.1
PEBP4
CDKL4
MYH14
CCDC152
SLC20A1
NME9
KLHL25
FTCDNL1
MYO18B
MAB21L1
SYT15
AL137186.1
AC105243.1
ARHGAP19-SLIT1
SLC51B
AL024509.3
USP53
UBE3D
UVRAG
AC022540.1
CAB39L
SLC24A2
DDX11-AS1
ADORA2A-AS1
SLC30A8
LINC02250
AP003025.2
RFX4
AC008438.1
IL12A-AS1
FLNB
LIN9
CPED1
ADAL
LINC01982
TDRD1
GPR75-ASB3
AP000688.1
AL160408.1
CENPE
VENTX
CAV1
AC023024.1
AC109361.2
DMRTA1
MITF
HDAC9
SLC16A2
DHTKD1
MFSD9
C12orf56
AC092652.2
LTC4S
CAMK2N1
TTC39C
HIPK1
NPY5R
STIL
DEPTOR
PTK2B
AC011498.4
CNTNAP2
SLC5A11
AC015819.2
AC011921.1
AL161457.1
APIP
CCDC138
CSPG4
AL596218.1
GFPT1
SFMBT1
EPSTI1
AC109361.1
USPL1
AC048380.1
RPL38
REPS2
SYNM
RGS20
PANK1
CFLAR
LFNG
AL590094.1
CC2D2B
ANTXR1
AL139142.1
CD70
ASB2
FAM212A
GABRR1
SH2D1B
AC005845.1
C8orf86
CUZD1
DDX4
KCNK9
KLC3
LINC01703
NCF4-AS1
LAMTOR5-AS1
FAM162A
ABHD6
CELF2-AS2
LRRC34
ARRDC3
GPR135
SLC12A1
SIL1
PROSER2
AHNAK2
GSTP1
PDE7A
AC128685.1
AL158817.1
BPI
CDHR4
CHMP4C
FAM50B
SYNPO2L
PRR29-AS1
OCLN
MAK
AC003075.1
AC015574.1
BVES
SELPLG
LINC01655
SRSF12
MYH10
TPK1
LINC00944
LINC01284
TMEM196
AC007216.1
AC067838.1
AC097512.1
AC130466.1
AF212831.1
AL358333.1
GPR37
LINC02158
LINC02291
NKD2
PLEKHN1
PRSS55
RND2
SV2A
ZNF835
AL031666.2
SPATA22
RBM28
GPBAR1
MSH4
AMIGO2
AC016526.1
TFAP2C
NSUN7
SOBP
AC007384.1
LPCAT2
GIMAP4
CLDN14
CMPK2
AL121983.2
RMDN2
TMC8
TRPA1
ST5
TRIM66
IER5L
LZTS1
AL645568.1
WDR31
AC090115.1
SSPN
CDYL
ADGRG2
CCDC71L
ST3GAL6-AS1
PDE4C
PTGER2
AL157400.3
C14orf132
AC018816.1
SULT1C2
CLMN
AL138767.3
AC009812.4
AC020687.1
CPNE9
CXCL13
FRRS1L
LINC01592
HSPA4L
AC008415.1
GABRB3
CFAP57
MGAT4A
SLC45A4
TTTY4B
APCDD1L-AS1
POU2F2
GTF2B
AP000695.2
CEP128
C10orf10
GABPB2
LRG1
AC064807.2
SMARCA1
FBN1
JADE3
ZNF217
AC023051.1
PIR
LINC01901
GSTCD
AC008780.2
RSAD2
TMEM71
HIBADH
AC138150.1
AC002101.1
AC002127.2
AC004014.1
AC005304.2
AC009133.4
AC009505.1
AC010096.1
AC010280.2
AC010511.1
AC011944.1
AC036108.2
AC048337.1
AC067930.2
AC068196.1
AC079174.1
AC079467.1
AC087235.1
AC087463.4
AC091117.2
AC103798.1
AC104779.1
AC117944.1
AC128709.3
AGR2
AL033519.3
AL122023.1
AL138826.1
AL138966.2
AL445489.1
AL513548.3
AL662797.3
AP001189.4
C17orf98
CCDC151
CCL13
CCL19
CD1C
FAM26D
FAM90A1
FCRL3
FGFR3
FLJ40194
ITPKA
LINC00558
LINC01415
LINC01869
NRSN1
PACERR
PDCD1
PPP1R17
PTCHD3
PTCSC3
RAB33A
RAB3A
RAD21-AS1
RNASE6
SLC10A4
SLC6A17
TECTB
WFDC11
PBX4
RIN3
ICAM2
AGPAT5
RPL13A
SGO2
BCHE
NETO2
LAMC3
NUAK1
COL27A1
C19orf18
OTOGL
AC009563.1
AC007389.3
AL355102.1
GLYATL1
AC020661.5
MYBPHL
XPNPEP3
MMP9
SLC7A11
BEAN1
ACO2
TNFRSF1B
ZNF208
LINC02431
MTHFD1L
FAM221B
STRIP2
LINC02316
WASF1
DAB2
LINC00862
AC022031.2
AL442163.1
RIMBP2
TMEM38B
NOCT
AC091078.1
CAPN12
AC005180.1
AC025524.2
GALNT5
RNF113A
PBX3
ATP6V1A
PRELID2
DNAJC18
CRY2
